{
    "ORG": [
        {
            "U.S. Department": 1,
            "Kislyak": 1,
            "CNI": 1,
            "Trump Campaign": 2,
            "Manafort": 12,
            "Kiev FBI": 1,
            "Luff": 1,
            "Foreign Bank Account Registration": 1,
            "FBAR": 1,
            "FARA": 1,
            "supra": 1,
            "Gates": 1,
            "FBI": 1,
            "EES Cross": 1
        },
        26
    ],
    "PERSON": [
        {
            "R. Crim": 1,
            "Sessions": 3,
            "Sessions Kislyak": 1,
            "attend.837": 1,
            "Paul Manafort Paul Manafort": 1,
            "Oleg Deripaska": 1,
            "Konstantin Kilimnik": 1,
            "Rick Gates": 1,
            "Kilimnik": 2,
            "Deripaska": 1,
            "Gates": 2,
            "Landrum": 1,
            "FARA": 1,
            "Paul J. Manafort": 1
        },
        18
    ],
    "CARDINAL": [
        {
            "6(e": 1,
            "8": 1,
            "834": 1,
            "302": 1,
            "6": 1,
            "4": 1,
            "835": 1,
            "1/17/18": 2,
            "23": 3,
            "836": 1,
            "837": 1,
            "838": 1,
            "1": 3,
            "2": 1,
            "60": 1,
            "839": 1,
            "16": 1,
            "129": 1
        },
        23
    ],
    "DATE": [
        {
            "November 2016": 1,
            "September 8": 1,
            "March August": 1,
            "302": 1,
            "August 21, 2018": 1,
            "September 14, 2018": 1,
            "March 7, 2019": 1,
            "47 months": 1,
            "March 13": 1,
            "73 months": 1,
            "30 months": 1,
            "13 months": 1,
            "90 months": 1,
            "Feb. 13, 2019": 1
        },
        14
    ],
    "GPE": [
        {
            "New York": 1,
            "Russia": 1,
            "Ukraine": 4,
            "Manafort": 1,
            "District Columbia": 2,
            "United States": 3,
            "Virginia": 2,
            "D.C.": 1
        },
        15
    ],
    "NORP": [
        {
            "Russian": 2,
            "pro-Russian": 1
        },
        3
    ],
    "PRODUCT": [
        {
            "Kilimnik": 1
        },
        1
    ],
    "MONEY": [
        {
            "302": 3
        },
        3
    ],
    "LOC": [
        {
            "Eastern District Virginia": 1,
            "Eastern District": 1
        },
        2
    ],
    "LAW": [
        {
            "Foreign Agents Registration Act": 1
        },
        1
    ],
    "WORK_OF_ART": [
        {
            "Volume I, Section III.D.1.b": 1,
            "Manafort 2/13/19 Transcript": 1
        },
        2
    ]
}