{
    "ORG": [
        {
            "U.S. Department": 1,
            "Prigozhin": 1,
            "Facebook": 1,
            "White House": 1,
            "IRA": 1,
            "Translator Department": 1,
            "United Muslims America": 1,
            "EES Cross": 1
        },
        8
    ],
    "PERSON": [
        {
            "R. Crim": 1,
            "Prigozhin": 1,
            "\u041f\u0435\u0440\u0435\u0432\u043e\u0434\u0447\u0438\u043a": 1
        },
        3
    ],
    "CARDINAL": [
        {
            "6(e": 1,
            "29": 2,
            "30": 1,
            "32": 2,
            "1": 1,
            "131": 1,
            "156": 1,
            "31": 1,
            "12(b": 1,
            "1479936895656747": 1,
            "189": 1
        },
        13
    ],
    "GPE": [
        {
            "U.S.": 7
        },
        7
    ],
    "DATE": [
        {
            "May 2016": 1,
            "June 1": 1,
            "spring 2014": 1
        },
        3
    ],
    "WORK_OF_ART": [
        {
            "Happy 55th Birthday Dear Boss": 1
        },
        1
    ]
}