{
    "ORG": [
        {
            "U.S. Department": 1,
            "White House": 1,
            "New York Times": 5,
            "Special Counsel": 1,
            "Sessions Times": 1,
            "Hicks": 1,
            "CNN": 1,
            "ABC": 1,
            "Meet Press": 1,
            "NBC": 1,
            "White House Daily Briefing": 1,
            "C-SPAN": 1,
            "1/29/18 Letter": 1,
            "Trump Press Gaggle": 1,
            "Times": 2,
            "EES Cross": 1
        },
        21
    ],
    "PERSON": [
        {
            "R. Crim": 1,
            "Sarah Sanders": 2,
            "Donald Trump": 1,
            "Jr": 1,
            "Lewandowski": 1,
            "David Wright": 1,
            "Trump": 3,
            "Sanders 7/3/18": 1,
            "Sanders": 1,
            "Peter Baker et al.": 2
        },
        14
    ],
    "CARDINAL": [
        {
            "6(e": 1,
            "730": 1,
            "731": 1,
            "18": 1,
            "732": 1,
            "733": 1,
            "735": 1,
            "105": 1
        },
        8
    ],
    "PRODUCT": [
        {
            "Trump Jr.\u2019s": 1
        },
        1
    ],
    "DATE": [
        {
            "Several months later": 1,
            "July 12, 2017": 3,
            "June 9": 3,
            "July 19, 2017": 3,
            "June 9, 2016": 1,
            "June 29, 2017, July 9, 2017": 1,
            "June 729": 1,
            "July 16, 2017": 1,
            "Aug. 1, 2017": 1,
            "June 15, 2018": 1
        },
        16
    ],
    "WORK_OF_ART": [
        {
            "Good Morning America": 1,
            "The President didn\u2019t sign anything. . . .": 1
        },
        2
    ]
}