{
    "ORG": [
        {
            "U.S. Department": 1,
            "efforts.442 Throughout": 1,
            "Valdai Discussion Club": 1,
            "Polonskaya": 1,
            "Washington Post": 1,
            "4/12/16": 1,
            "EES Cross-Out": 1
        },
        7
    ],
    "PERSON": [
        {
            "R. Crim": 1,
            "Papadopoulos": 13,
            "Mifsud": 5,
            "Polonskaya": 1,
            "Mifsud Polonskaya": 2,
            "\u201d446 Papadopoulos": 1,
            "London": 1,
            "Duma": 1,
            "Trump": 1,
            "Papadopoulos Polonskaya": 2,
            "Polonskaya Papadopoulos": 2,
            "Mifsud Papadopoulos": 1,
            "Anton Troianovski": 1,
            "Putin": 1,
            "Papadopoulos Mifsud": 1
        },
        34
    ],
    "CARDINAL": [
        {
            "6(e": 1,
            "441": 1,
            "302": 3,
            "4": 1,
            "3": 1,
            "2": 1,
            "442": 1,
            "443": 1,
            "10-15": 1,
            "444": 1,
            "445": 1,
            "446": 1,
            "447": 1,
            "448": 1,
            "449": 1,
            "450": 1,
            "451": 1,
            "452": 1,
            "87": 1
        },
        21
    ],
    "NORP": [
        {
            "Russian": 3,
            "Duma Russian": 1
        },
        4
    ],
    "GPE": [
        {
            "London": 1,
            "Russia": 4,
            "Russian Federation": 1,
            "St. Petersburg": 1,
            "Moscow": 2,
            "Valdai": 1
        },
        10
    ],
    "DATE": [
        {
            "April 2016": 1,
            "week": 1,
            "March 24": 1,
            "April 11, 2016": 1,
            "tomorrow": 2,
            "Feb. 10, 2018": 1
        },
        7
    ],
    "WORK_OF_ART": [
        {
            "[t]he Russian Federation": 1
        },
        1
    ],
    "TIME": [
        {
            "3:39 a.m.": 1,
            "5:36 a.m.": 1,
            "2:45:59 p.m.": 1,
            "3:11:24 a.m.": 1,
            "9:21:56 a.m.": 1,
            "11:51:53 a.m.": 1,
            "4:47:06 a.m.": 1
        },
        7
    ],
    "PRODUCT": [
        {
            "Email": 1
        },
        1
    ]
}