{
    "ORG": [
        {
            "U.S. Department": 1,
            "Crocus Group": 2,
            "Universe": 1,
            "Party Regions": 1,
            "Democratic Party": 1,
            "Petr": 1,
            "Alfa-Bank": 1,
            "Presidential Transition Team": 2,
            "White House": 1,
            "Trump Campaign": 1,
            "Rosneft": 1,
            "Anna Internet Research Agency": 1,
            "social media": 1,
            "EES Cross-Out elb Cross-Out": 1
        },
        16
    ],
    "PERSON": [
        {
            "R. Crim": 1,
            "Agalarov": 2,
            "Aras": 1,
            "Donald Trump": 1,
            "Trump Tower": 2,
            "Natalia Veselnitskaya Trump Campaign": 2,
            "Emin Performer": 1,
            "Aras Agalarov": 1,
            "Akhmetov": 1,
            "Rinat": 2,
            "Paul Manafort": 1,
            "Akhmetshin": 1,
            "Natalia Veselnitskaya": 1,
            "Aslanov": 1,
            "Dzheykhun": 1,
            "Jay": 1,
            "Assange": 1,
            "Julian": 1,
            "WikiLeaks": 1,
            "Aven": 1,
            "Bannon": 1,
            "Stephen": 1,
            "Trump": 1,
            "Steve": 1,
            "Baranov": 1,
            "Andrey": 1,
            "Carter Page": 1,
            "Berkowitz": 1,
            "Jared Kushner": 1,
            "Boente": 1,
            "Dana": 1,
            "Bogacheva": 1,
            "Bossert": 1,
            "Thomas": 1,
            "Tom": 1
        },
        39
    ],
    "CARDINAL": [
        {
            "6(e": 1
        },
        1
    ],
    "LANGUAGE": [
        {
            "Russian": 1
        },
        1
    ],
    "DATE": [
        {
            "June 9, 2016": 3,
            "2016": 3,
            "Jan. 2017 \u2013 Aug. 2017": 1,
            "Jan. 2017 \u2013 Feb. 2017": 1,
            "Feb. 2017 \u2013 Apr. 2017": 1,
            "2014": 1
        },
        10
    ],
    "NORP": [
        {
            "Ukrainian": 2,
            "Russian": 1
        },
        3
    ],
    "GPE": [
        {
            "U.S.": 4,
            "United States": 1
        },
        5
    ],
    "FAC": [
        {
            "Trump Tower Veselnitskaya Trump Campaign": 1
        },
        1
    ]
}