{
    "ORG": [
        {
            "U.S. Department": 1,
            "Comey": 13,
            "FBI": 6,
            "White House": 1,
            "Rogers": 1,
            "ISIS": 1,
            "Sessions": 1,
            "Trump Campaign": 1,
            "Trump Organization": 1,
            "EES Cross": 1
        },
        27
    ],
    "PERSON": [
        {
            "R. Crim": 1,
            "Clinton": 3,
            "McCabe": 1,
            "Rosenstein": 1,
            "Comey": 6,
            "Sanders": 2,
            "Sessions": 1,
            "Coats": 1,
            "Flynn": 1,
            "Robert Kennedy": 1,
            "Michael Cohen": 1
        },
        19
    ],
    "CARDINAL": [
        {
            "6(e": 1,
            "one": 1,
            "76": 1
        },
        3
    ],
    "DATE": [
        {
            "early 2017": 1,
            "January 27": 1,
            "May 3": 1,
            "day": 1
        },
        4
    ],
    "GPE": [
        {
            "Russia": 9
        },
        9
    ],
    "NORP": [
        {
            "Russians": 1,
            "Russian": 2
        },
        3
    ]
}