{
    "ORG": [
        {
            "U.S. Department": 1,
            "Christie friendly": 1,
            "Christie Comey": 1,
            "Oval Office": 1,
            "Christie": 10,
            "Spicer": 2,
            "Flynn": 1,
            "115th Cong": 1,
            "FBI": 1,
            "Priebus": 1,
            "Comey": 1,
            "EES Cross": 1
        },
        22
    ],
    "PERSON": [
        {
            "R. Crim": 1,
            "Flynn": 5,
            "Comey": 4,
            "Christie": 3,
            "Sessions": 1,
            "briefing.231": 1,
            "Comey alone.232": 1,
            "Jared Kushner": 1,
            "Kushner": 4,
            "James B. Comey": 1
        },
        22
    ],
    "CARDINAL": [
        {
            "6(e": 1,
            "222": 1,
            "302": 14,
            "3": 3,
            "223": 1,
            "9": 2,
            "224": 1,
            "4": 3,
            "225": 1,
            "226": 1,
            "227": 1,
            "5": 4,
            "228": 1,
            "229": 1,
            "230": 1,
            "231": 1,
            "232": 1,
            "10": 1,
            "2/14/17": 1,
            "1": 1,
            "39": 1
        },
        42
    ],
    "TIME": [
        {
            "4 p.m. afternoon": 1
        },
        1
    ],
    "WORK_OF_ART": [
        {
            "Daily Diary": 1,
            "Russian Election Interference Before Senate Select Intelligence Committee": 1
        },
        2
    ],
    "PRODUCT": [
        {
            "Comey": 1
        },
        1
    ],
    "LAW": [
        {
            "Comey Memorandum": 1
        },
        1
    ],
    "DATE": [
        {
            "June 8, 2017": 1,
            "4": 1,
            "18": 1,
            "June": 1
        },
        4
    ]
}