{
    "ORG": [
        {
            "U.S. Department": 1,
            "Sessions": 1,
            "White House": 1,
            "Sessions Dearborn": 1,
            "Lewandowski": 6,
            "EES Cross": 1
        },
        11
    ],
    "PERSON": [
        {
            "R. Crim": 1,
            "Sessions": 3,
            "Lewandowski": 16,
            "phone.613": 1,
            "Rick Dearborn": 1,
            "Lewandowski Oval": 1,
            "Donald Trump Jr.": 1,
            "Jared Kushner": 1,
            "Paul Manafort": 1
        },
        26
    ],
    "CARDINAL": [
        {
            "6(e": 1,
            "611": 1,
            "3": 4,
            "4": 8,
            "612": 1,
            "302": 11,
            "613": 1,
            "614": 1,
            "615": 1,
            "616": 1,
            "617": 1,
            "618": 1,
            "619": 1,
            "620": 1,
            "6": 1,
            "621": 1,
            "5": 1,
            "92": 1
        },
        38
    ],
    "WORK_OF_ART": [
        {
            "Sessions": 1
        },
        1
    ],
    "GPE": [
        {
            "Washington": 1,
            "D.C.": 1,
            "Dearborn": 5
        },
        7
    ],
    "PRODUCT": [
        {
            "items.617 2": 1,
            "Lewandowski 6/19/17 Notes": 1
        },
        2
    ],
    "DATE": [
        {
            "June": 1,
            "late July": 1,
            "July 19, 2017": 1,
            "preceding days": 1,
            "June 9, 2016": 1,
            "July 19": 1
        },
        6
    ],
    "NORP": [
        {
            "Russians": 1
        },
        1
    ],
    "TIME": [
        {
            "302": 1
        },
        1
    ]
}