{
    "ORG": [
        {
            "U.S. Department": 1,
            "Forum St.": 1,
            "Graff": 3,
            "Trump": 4,
            "United States": 1,
            "Trump Organization": 1,
            "Roscongress Foundation": 1,
            "Apprentice": 1,
            "Kremlin": 1,
            "Office": 1,
            "Foresman Graff": 1,
            "EES Cross": 1
        },
        17
    ],
    "PERSON": [
        {
            "R. Crim": 1,
            "Duma": 2,
            "Graff": 3,
            "Trump,380 Graff": 1,
            "Prikhodko": 1,
            "Trump": 2,
            "Trump sign.384": 1,
            "Robert Foresman": 1,
            "Foresman": 3,
            "Anton Kobyakov": 1,
            "Mark Burnett": 1,
            "Vladimir Putin": 1,
            "George W. Bush": 1,
            "Corey Lewandowski": 1,
            "Jessica Macchia": 1,
            "Mira Graff": 1,
            "Donald J. Trump": 2,
            "Graff Macchia": 2
        },
        26
    ],
    "CARDINAL": [
        {
            "6(e": 1,
            "two": 1,
            "379": 1,
            "380": 1,
            "381": 1,
            "382": 1,
            "383": 1,
            "384": 1,
            "385": 1,
            "302": 1,
            "3": 2,
            "386": 1,
            "387": 1,
            "79": 1
        },
        15
    ],
    "PRODUCT": [
        {
            "Graff": 1,
            "Forum.385 Foresman": 1,
            "Foresman": 1
        },
        3
    ],
    "DATE": [
        {
            "March 17, 2016": 1,
            "2016": 1,
            "Two weeks later, March 31, 2016": 1,
            "March 31, 2016": 2,
            "April 4, 2016": 1,
            "September 17, 2018": 1,
            "November 20, 2018": 1,
            "Nov. 20, 2018": 2,
            "17": 2
        },
        12
    ],
    "EVENT": [
        {
            "Forum": 1
        },
        1
    ],
    "GPE": [
        {
            "New York": 1,
            "Russia": 1,
            "Ukraine": 1,
            "U.S.": 1
        },
        4
    ],
    "FAC": [
        {
            "Graff": 1
        },
        1
    ],
    "NORP": [
        {
            "Russian": 1,
            "Foresman": 3
        },
        4
    ]
}