{
    "ORG": [
        {
            "U.S. Department": 1,
            "Rosneft passing.574": 1,
            "Trump Campaign Baranov": 1,
            "Presidential Administration": 2,
            "NES": 1,
            "EES Cross": 1
        },
        7
    ],
    "PERSON": [
        {
            "R. Crim": 1,
            "Arkady Dvorkovich": 1,
            "Dvorkovich": 1,
            "Trump": 1
        },
        4
    ],
    "CARDINAL": [
        {
            "6(e": 1,
            "82": 1,
            "574": 1,
            "302": 5,
            "9": 1,
            "3": 2,
            "2": 1,
            "577": 1,
            "578": 1,
            "101": 1
        },
        15
    ],
    "NORP": [
        {
            "conversation.575": 1,
            "Tatneft": 1,
            "Russian": 3
        },
        5
    ],
    "DATE": [
        {
            "July 8, 2016": 1,
            "July 9, 2016": 1,
            "7": 1
        },
        3
    ],
    "GPE": [
        {
            "Moscow": 2,
            "Clovis": 1,
            "Russia": 1
        },
        4
    ],
    "QUANTITY": [
        {
            "579 580 581 582": 1
        },
        1
    ]
}