{
    "ORG": [
        {
            "U.S. Department": 1,
            "Trump Tower Moscow": 2,
            "Trump Organization": 3,
            "Trump": 1,
            "Congress": 4,
            "Tower Moscow": 1,
            "FBI": 1,
            "The Trump Organization": 1,
            "The Office Cohen\u2019s": 1,
            "Office": 2,
            "EES Cross": 1
        },
        18
    ],
    "PERSON": [
        {
            "R. Crim": 1,
            "K.": 1,
            "Michael Cohen Overview": 1,
            "Michael Cohen": 1,
            "Cohen": 20,
            "Trump": 4,
            "Trump Trump": 1,
            "Donald J.": 1
        },
        30
    ],
    "CARDINAL": [
        {
            "6(e": 1,
            "1": 1,
            "909": 1,
            "8/7/18": 1,
            "302": 1,
            "134": 1
        },
        6
    ],
    "GPE": [
        {
            "Russia": 7,
            "Moscow": 2
        },
        9
    ],
    "DATE": [
        {
            "2017": 1,
            "January 2016": 1,
            "April 2018": 1,
            "July 2018": 1,
            "September 2015 June 2016": 1,
            "August 2018 November 2018": 1,
            "12-17": 1,
            "August 21, 2018": 1,
            "September 2018": 1
        },
        9
    ],
    "NORP": [
        {
            "Russian": 1,
            "Republican": 1
        },
        2
    ],
    "FAC": [
        {
            "Trump Tower Moscow": 2
        },
        2
    ],
    "LOC": [
        {
            "Southern District New York": 1
        },
        1
    ]
}