{
    "ORG": [
        {
            "U.S. Department": 1,
            "& committee": 1,
            "FBI": 2,
            "Camp David.572": 1,
            "Office": 1,
            "White House Counsel\u2019s Office": 1,
            "conflicts.578": 1,
            "White House": 1,
            "EES Cross": 1
        },
        10
    ],
    "PERSON": [
        {
            "R. Crim": 1,
            "Witch Hunt": 1,
            "McGahn": 4,
            "Rosenstein Mueller": 1,
            "Rod": 1,
            "do.575": 1,
            "request.576": 1,
            "Reagan": 1,
            "ET": 1,
            "Don McGahn": 1
        },
        13
    ],
    "CARDINAL": [
        {
            "6(e": 1,
            "568": 1,
            "569": 1,
            "6/16/17": 2,
            "570": 1,
            "571": 1,
            "302": 12,
            "1-2": 2,
            "10": 2,
            "572": 1,
            "573": 1,
            "1-3": 2,
            "574": 1,
            "1": 5,
            "575": 1,
            "576": 1,
            "577": 1,
            "578": 1,
            "85": 1
        },
        38
    ],
    "DATE": [
        {
            "June 16, 2017": 1,
            "7 months": 1,
            "Saturday, June 17, 2017": 1,
            "1": 1,
            "3": 1,
            "June 17, 2017": 2,
            "June 14, 2017": 1
        },
        8
    ],
    "NORP": [
        {
            "Russians": 1
        },
        1
    ],
    "TIME": [
        {
            "3:56 p.m. ET": 1,
            "7:53 a.m.": 1,
            "9:07 a.m. ET": 1,
            "11:07 a.m.": 1,
            "11:37 a.m.": 1,
            "approximately 23 minutes": 1,
            "2:23 p.m.": 1,
            "2:46 p.m.": 1
        },
        8
    ],
    "WORK_OF_ART": [
        {
            "Daily Diary": 2
        },
        2
    ],
    "FAC": [
        {
            "Camp David": 1
        },
        1
    ]
}