{
    "ORG": [
        {
            "U.S. Department": 1,
            "WikiLeaks": 4,
            "Stone": 1,
            "DNC": 1,
            "EES Cross": 1
        },
        8
    ],
    "PERSON": [
        {
            "R. Crim": 1,
            "Roger Stone": 3,
            "WikiLeaks Guccifer 2.0": 1,
            "g.": 1,
            "Stone": 5,
            "Ifyes ld": 1,
            "h.": 1,
            "Ju lian Assange": 1
        },
        14
    ],
    "CARDINAL": [
        {
            "6(e": 1,
            "111": 2,
            "1": 2,
            "12": 1
        },
        6
    ],
    "DATE": [
        {
            "October 7, 2016": 1,
            "June 1, 2016": 1,
            "prior January 20, 2017": 1
        },
        3
    ],
    "GPE": [
        {
            "Russia": 1,
            "Jdo": 1
        },
        2
    ]
}