{
    "ORG": [
        {
            "U.S. Department": 1,
            "Sessions": 3,
            "Department Justice": 1,
            "FBI": 1,
            "ANGER & UNITY": 1,
            "Sessions Oval Office": 1,
            "un": 1,
            "POTUS": 2,
            "AG": 1,
            "Porter": 1,
            "Cabinet": 1,
            "AG Sessions": 1,
            "EES Cross": 1
        },
        16
    ],
    "PERSON": [
        {
            "R. Crim": 1,
            "investigating.752": 1,
            "Porter": 7,
            "Clinton": 3,
            "James Comey": 1,
            "Hillary Clinton": 1,
            "Comey": 2,
            "Flynn": 1,
            "meeting.757": 1,
            "Sessions": 3,
            "Hillary": 1,
            "Dershowitz": 1,
            "Porter 5/8/18": 1,
            "ET": 1,
            "10/18/17": 1,
            "@realDonaldTrump 10/29/17": 2,
            "Porter 12/6/17 Notes": 3,
            "Kelly": 2
        },
        33
    ],
    "CARDINAL": [
        {
            "6(e": 1,
            "2": 1,
            "752": 1,
            "302": 6,
            "10": 3,
            "753": 1,
            "754": 1,
            "755": 1,
            "756": 1,
            "757": 1,
            "5": 2,
            "758": 1,
            "12": 1,
            "759": 1,
            "109": 1
        },
        23
    ],
    "DATE": [
        {
            "Later 2017": 1,
            "October 16, 2017": 1,
            "Two days later, October 18, 2017": 1,
            "October 29, 2017": 1,
            "December 6, 2017": 1,
            "6": 1,
            "12": 1
        },
        7
    ],
    "NORP": [
        {
            "Russian": 1
        },
        1
    ],
    "FAC": [
        {
            "Oval Office": 1
        },
        1
    ],
    "WORK_OF_ART": [
        {
            "unrecuse": 1
        },
        1
    ],
    "GPE": [
        {
            "Russia": 1
        },
        1
    ],
    "TIME": [
        {
            "6:21 a.m.": 1,
            "6:27 a.m. ET": 1,
            "9:53 a.m. ET": 1,
            "10:02 a.m. ET": 1,
            "10:17 a.m. ET": 1
        },
        5
    ],
    "PRODUCT": [
        {
            "5/8/18 302": 1
        },
        1
    ]
}