{
    "ORG": [
        {
            "U.S. Department": 1,
            "CONST": 2,
            "Congress": 6,
            "United States": 1,
            "Supreme Court": 1,
            "Administrator General Services": 1,
            "EES Cross": 1
        },
        13
    ],
    "PERSON": [
        {
            "R. Crim": 1,
            "Zivotofsky": 1,
            "Klein": 1,
            "Brewster": 1,
            "Bowsher": 1
        },
        5
    ],
    "CARDINAL": [
        {
            "6(e": 1,
            "2083": 1,
            "491": 1,
            "2": 1,
            "3": 2,
            "135": 1,
            "80": 1,
            "13": 1,
            "128": 1,
            "147": 1,
            "18": 1,
            "6": 1,
            "408": 1,
            "526": 1,
            "433": 1,
            "478": 1,
            "726": 1,
            "173": 1
        },
        19
    ],
    "DATE": [
        {
            "2094": 1,
            "2087": 1,
            "1872": 1,
            "1972": 1,
            "1986": 1
        },
        5
    ],
    "GPE": [
        {
            "U.S.": 9,
            "S. Ct": 1,
            "United States": 1,
            "Synar": 1
        },
        12
    ],
    "PRODUCT": [
        {
            "485-486": 1,
            "t]he": 1
        },
        2
    ],
    "LAW": [
        {
            "Presentment Clauses": 1,
            "Article II": 1,
            "Constitution": 1
        },
        3
    ],
    "WORK_OF_ART": [
        {
            "Justice Statutes": 1,
            "Congress reserve power": 1
        },
        2
    ]
}