{
    "ORG": [
        {
            "U.S. Department": 1,
            "Department Justice": 3,
            "McGahn Rosenstein Special Counsel": 1,
            "White House": 1,
            "Priebus": 1,
            "EES Cross-Out": 1
        },
        8
    ],
    "PERSON": [
        {
            "R. Crim": 1,
            "Rosenstein": 1,
            "Mueller": 2,
            "McGahn": 2,
            "Priebus Bannon": 2,
            "ta Rod": 1,
            "Ruddy": 1
        },
        10
    ],
    "CARDINAL": [
        {
            "6(e": 1,
            "601": 1,
            "88": 1
        },
        3
    ],
    "DATE": [
        {
            "June 2017": 1,
            "days": 2,
            "weekend": 1,
            "Saturday": 1,
            "May 23, 2017": 1,
            "June 17, 2017": 1
        },
        7
    ],
    "WORK_OF_ART": [
        {
            "Saturday Night Massacre": 1
        },
        1
    ]
}