{
    "ORG": [
        {
            "U.S. Department": 1,
            "Trump Organization": 6,
            "Trump Tower": 1,
            "Sater": 9,
            "Trump Organization Moscow": 1,
            "I.C. Expert Investment Company": 1,
            "I.C. Expert": 5,
            "Rozov": 5,
            "Rozov Rozov": 1,
            "New York": 1,
            "Trump Tower Moscow": 1,
            "I.C.": 1,
            "Cohen Trump Organization": 1,
            "Trump": 2,
            "Trump Moscow": 1,
            "EES Cross-Out": 1
        },
        38
    ],
    "PERSON": [
        {
            "R. Crim": 1,
            "Giorgi Rtskhiladze": 1,
            "Felix Sater": 1,
            "Michael Cohen": 1,
            "Donald J.": 1,
            "Ivanka Trump Donald Trump Jr.": 1,
            "Cohen": 6,
            "Andrei Vladimirovich": 1,
            "Ivanka Trump": 1,
            "Donald J. Trump Jr.": 1,
            "Cohen Rozov et al.": 1
        },
        16
    ],
    "CARDINAL": [
        {
            "6(e": 1,
            "304": 1,
            "1": 3,
            "5": 2,
            "307": 1,
            "3": 1,
            "308": 1,
            "302": 5,
            "309": 1,
            "310": 1,
            "4": 2,
            "311": 1,
            "312": 1,
            "69": 1
        },
        22
    ],
    "DATE": [
        {
            "Summer Fall 2015": 1,
            "late summer 2015": 1,
            "approximately September 2015": 2,
            "approximately 2007 and, 2014": 1,
            "2015 2016": 1,
            "fall 2015": 1,
            "2017": 1,
            "1": 1
        },
        9
    ],
    "GPE": [
        {
            "Moscow": 4,
            "New York-": 1
        },
        5
    ],
    "FAC": [
        {
            "Trump Tower": 1
        },
        1
    ],
    "NORP": [
        {
            "Russian": 1
        },
        1
    ]
}