{
    "ORG": [
        {
            "U.S. Department": 1,
            "Mayflower Hotel": 1,
            "Congress": 1,
            "Trump Campaign": 1,
            "Sessions": 4,
            "Kislyak": 3,
            "Senate Office": 1,
            "Consistent Principles Federal Prosecution": 1,
            "vii": 1,
            "During Investigation": 1,
            "EES Cross": 1
        },
        16
    ],
    "PERSON": [
        {
            "R. Crim": 1,
            "Sessions": 6,
            "Kislyak": 2,
            "Trump": 1
        },
        10
    ],
    "CARDINAL": [
        {
            "6(e": 1,
            "198": 1
        },
        2
    ],
    "GPE": [
        {
            "Washington": 1,
            "D.C.": 1,
            "Russia": 1
        },
        3
    ],
    "DATE": [
        {
            "April 2016": 1,
            "January 2017": 3,
            "January 17, 2017": 1,
            "2016": 2,
            "election day": 1,
            "March 2017": 1,
            "March 2018": 1
        },
        10
    ],
    "NORP": [
        {
            "Russian": 8,
            "Russians": 3
        },
        11
    ]
}