{
    "ORG": [
        {
            "U.S. Department": 1,
            "Special Counsel": 1,
            "investigation.501": 1,
            "FBI": 1,
            "Oval Office Rosenstein": 1,
            "EES Cross": 1
        },
        6
    ],
    "PERSON": [
        {
            "R. Crim": 1,
            "Rosenstein": 1,
            "Robert S. Mueller": 1,
            "Sessions": 4,
            "Hunt": 4,
            "news.503": 1,
            "Eric": 1,
            "Robert Kennedy.506 Sessions": 1,
            "ET": 1
        },
        15
    ],
    "CARDINAL": [
        {
            "6(e": 1,
            "1": 1,
            "501": 1,
            "502": 1,
            "302": 8,
            "13": 2,
            "18": 2,
            "503": 1,
            "1/17/18": 3,
            "504": 1,
            "505": 1,
            "506": 1,
            "507": 1,
            "508": 1,
            "78": 1
        },
        26
    ],
    "DATE": [
        {
            "That weekend": 1,
            "Saturday": 1,
            "May 17, 2017": 2,
            "years years": 1,
            "3915-2017": 1,
            "4": 2,
            "13": 1,
            "14": 3
        },
        12
    ],
    "GPE": [
        {
            "Russia": 1
        },
        1
    ],
    "WORK_OF_ART": [
        {
            "Special Counsel Investigate Russian Interference 2016": 1
        },
        1
    ],
    "LAW": [
        {
            "Hunt 5/17/17 Notes": 5
        },
        5
    ],
    "MONEY": [
        {
            "1/17/18": 1,
            "302": 2
        },
        3
    ],
    "TIME": [
        {
            "Early morning": 1,
            "7:52 a.m.": 1
        },
        2
    ],
    "NORP": [
        {
            "American": 1
        },
        1
    ]
}