{
    "ORG": [
        {
            "U.S. Department": 1,
            "Manafort": 9,
            "Deripaska": 5,
            "Manafort, Gates": 1,
            "Akhmetov": 1,
            "Party": 1,
            "Manafort assisted Party Regions": 1,
            "Ukrainian oligarchs.856 Kilimnik": 1,
            "Patten": 1,
            "Kilimnik Visa Record": 1,
            "U.S. Department State": 2,
            "EES Cross": 1
        },
        25
    ],
    "PERSON": [
        {
            "R. Crim": 1,
            "Manafort Deripaska": 1,
            "Gates": 5,
            "dispute.851": 1,
            "Rinat Akhmetov": 1,
            "Viktor Yanukovych": 1,
            "Yanukovych time": 1,
            "protests.854": 1,
            "Konstantin Kilimnik": 1,
            "Manafort employee.855 Kilimnik": 1,
            "Viktor Boyarkin,857 Russian": 1,
            "Davis": 1,
            "Patten": 2
        },
        18
    ],
    "CARDINAL": [
        {
            "6(e": 1,
            "849": 1,
            "302": 16,
            "9": 3,
            "850": 1,
            "6": 1,
            "851": 1,
            "852": 1,
            "1": 1,
            "2": 3,
            "853": 1,
            "5": 2,
            "854": 1,
            "855": 1,
            "856": 1,
            "18-19": 1,
            "4": 1,
            "11": 1,
            "857": 1,
            "18": 1,
            "8": 1,
            "858": 1,
            "132": 1
        },
        43
    ],
    "DATE": [
        {
            "2009": 1,
            "past years": 1,
            "2016": 1,
            "2005": 1,
            "2010": 1,
            "2014": 1,
            "Kilimnik": 1,
            "1": 1,
            "18-19": 1,
            "8": 1
        },
        10
    ],
    "LOC": [
        {
            "Kilimnik": 1
        },
        1
    ],
    "NORP": [
        {
            "Ukrainian": 1,
            "Russian": 2
        },
        3
    ],
    "GPE": [
        {
            "Ukraine": 3,
            "Russia": 3,
            "Yanukovych": 3
        },
        9
    ],
    "PRODUCT": [
        {
            "Manafort 9/20/18": 1
        },
        1
    ],
    "MONEY": [
        {
            "302": 1
        },
        1
    ],
    "EVENT": [
        {
            "Boyarkin Visa Record": 1
        },
        1
    ]
}