{
    "ORG": [
        {
            "U.S. Department": 1,
            "Trump": 4,
            "times.38": 1,
            "The Trump Organization": 1,
            "Trump Tower Moscow": 2,
            "Donald Trump News Conference": 6,
            "C-SPAN": 6,
            "Section II.K": 1,
            "infra": 1,
            "EES Cross": 1
        },
        24
    ],
    "PERSON": [
        {
            "R. Crim": 1,
            "Trump": 5,
            "Universe": 1,
            "Michael Cohen": 1,
            "Cohen": 5,
            "untrue.43 Trump": 1,
            "Cohen Trump Tower Moscow": 1,
            "Hillary Clinton": 1,
            "Donald J. Trump": 2
        },
        18
    ],
    "CARDINAL": [
        {
            "6(e": 1,
            "36": 1,
            "37": 1,
            "38": 1,
            "39": 1,
            "40": 1,
            "41": 1,
            "42": 1,
            "43": 1,
            "302": 2,
            "4": 2,
            "19": 1
        },
        14
    ],
    "GPE": [
        {
            "Russia": 7,
            "Crimea": 1,
            "Moscow": 4,
            "deal?\u201d44": 1,
            "Doral": 6,
            "Florida": 6
        },
        25
    ],
    "NORP": [
        {
            "Russian": 3,
            "Russians": 1
        },
        4
    ],
    "DATE": [
        {
            "2013": 1,
            "approximately September 2015 June 2016": 1,
            "July 27, 2016": 6,
            "Nov. 20, 2018": 2,
            "13": 1,
            "17": 1,
            "44": 1
        },
        13
    ],
    "LOC": [
        {
            "Crimea": 1
        },
        1
    ],
    "WORK_OF_ART": [
        {
            "Volume I,": 1
        },
        1
    ],
    "FAC": [
        {
            "Volume II": 1
        },
        1
    ]
}