{
    "ORG": [
        {
            "U.S. Department": 1,
            "meeting.711": 1,
            "Trump": 5,
            "Office": 2,
            "Manafort": 2,
            "Grand Jury": 1,
            "Jr.": 1,
            "Senate Judiciary Committee": 1,
            "115th Cong": 1,
            "The Senate Judiciary Committee": 1,
            "Washington Post": 2,
            "supra": 1,
            "Senate Committee Judiciary": 1,
            "Trump Tower": 1,
            "Reuters": 1,
            "OSC-KAV00113": 1,
            "Prevezon Holdings Order": 1,
            "Akhmetshin": 1,
            "EES Cross": 1
        },
        26
    ],
    "PERSON": [
        {
            "R. Crim": 1,
            "Manafort Kushner": 1,
            "Trump": 3,
            "Kushner": 2,
            "Hillary Clinton": 1,
            "Veselnitskaya New York": 1,
            "Veselnitskaya": 2,
            "Rinat Akhmetshin": 1,
            "Akhmetshin": 1,
            "Kaveladze Anatoli Samochornov": 1,
            "Donald J. Trump": 2,
            "Trump Jr.": 2,
            "Clintons": 2,
            "Phillip Bump": 1,
            "Clinton": 3,
            "Peter Schweizer": 1,
            "Clinton Cash": 1,
            "Donald Trump": 1,
            "Natalia Veselnitskaya": 1,
            "Alison Frankel": 1,
            "Michael Kranish et al.": 1,
            "Goldstone Kaveladze": 1,
            "RG000073": 1,
            "Goldstone Trump Jr.": 1,
            "Lieberman": 1
        },
        34
    ],
    "CARDINAL": [
        {
            "6(e": 1,
            "711": 1,
            "94-95": 1,
            "18": 1,
            "10-11": 1,
            "712": 1,
            "3": 1,
            "4/11/18": 1,
            "302": 3,
            "10": 1,
            "713": 1,
            "41": 1,
            "5": 1,
            "715": 1,
            "716": 1,
            "4": 1
        },
        18
    ],
    "DATE": [
        {
            "June 2016": 1,
            "June 9, 2016": 1,
            "That day": 1,
            "28-29": 1,
            "84": 1,
            "(Sept. 7, 2017": 1,
            "Nov. 20, 2018": 1,
            "8": 1,
            "June 9": 3,
            "June 7, 2016": 1,
            "Aug. 7, 2018": 1,
            "June 12": 1,
            "June 13": 1,
            "later June 22": 1,
            "June 22, 2016": 1,
            "Nov. 20, 2017": 1,
            "42": 1,
            "Nov. 6, 2017": 1,
            "July 11, 2017": 1,
            "Oct. 17, 2016": 1
        },
        22
    ],
    "GPE": [
        {
            "Prevezon": 1,
            "U.S.": 2,
            "New York": 1
        },
        4
    ],
    "NORP": [
        {
            "Soviet": 1,
            "Russian": 2
        },
        3
    ],
    "LAW": [
        {
            "Magnitsky Act": 1
        },
        1
    ],
    "PRODUCT": [
        {
            "302": 1
        },
        1
    ],
    "WORK_OF_ART": [
        {
            "Monday week\u201d\u2014which June 13\u2014about": 1,
            "See Full Transcript": 1
        },
        2
    ],
    "FAC": [
        {
            "Trump Tower": 1,
            "Pulse": 1
        },
        2
    ]
}