{
    "ORG": [
        {
            "U.S. Department": 1,
            "Kushner.1112 Kushner": 1,
            "Gerson": 3,
            "Dmitriev & Gerson": 2,
            "1115 Gerson": 1,
            "EES Cross": 1
        },
        9
    ],
    "PERSON": [
        {
            "R. Crim": 1,
            "Dmitriev": 10,
            "Gerson Bannon": 1,
            "Gerson": 10,
            "Kushner": 7,
            "Bannon Rex Tillerson": 1,
            "Nader": 2,
            "boss\u201d\u2014an": 1,
            "Putin": 1,
            "Gerson Putin": 1,
            "Trump": 1,
            "Dmitriev Nader": 1,
            "Gerson Dmitriev": 1,
            "Dmitriev Gerson": 3,
            "1120": 1
        },
        42
    ],
    "CARDINAL": [
        {
            "6(e": 1,
            "two": 2,
            "1": 2,
            "2": 3,
            "3": 5,
            "4": 2,
            "5": 1,
            "302": 5,
            "1110": 1,
            "1121": 1,
            "158": 1
        },
        24
    ],
    "GPE": [
        {
            "Seychelles": 1,
            "US": 1
        },
        2
    ],
    "DATE": [
        {
            "January 16, 2017": 1,
            "January 18, 2017": 1,
            "January 19, 2017": 1,
            "January 26, 2017": 1,
            "weeks": 1,
            "Saturday": 1,
            "yesterday": 1,
            "1112": 1,
            "302": 3,
            "22": 1,
            "32": 1,
            "1117": 1,
            "1118": 1
        },
        15
    ],
    "TIME": [
        {
            "302": 1,
            "11:11:56 a.m.": 1
        },
        2
    ],
    "MONEY": [
        {
            "302": 1
        },
        1
    ],
    "WORK_OF_ART": [
        {
            "Text Message": 1
        },
        1
    ]
}