{
    "ORG": [
        {
            "U.S. Department": 1,
            "Jr.": 1,
            "Trump Tower": 1,
            "EES Cross": 1
        },
        4
    ],
    "PERSON": [
        {
            "R. Crim": 1,
            "I. a. b. c.": 1,
            "DONALD J.": 1,
            "Donald Trump": 4,
            "Paul Manafort": 2,
            "Jared Kushner": 2,
            "Hillary Clinton": 1,
            "Rob Goldstone": 1,
            "Rob Goldstone Emin Agalarov": 1,
            "Trump": 1,
            "Natalia Veselnitskaya": 1
        },
        16
    ],
    "CARDINAL": [
        {
            "6(e": 1,
            "1": 2,
            "11": 2,
            "111": 1,
            "1v": 1,
            "6": 1
        },
        8
    ],
    "DATE": [
        {
            "June 9, 2016": 2,
            "June 2016": 2,
            "June 3, 2016, June 9, 2016": 1,
            "June 9": 2
        },
        7
    ],
    "FAC": [
        {
            "Trump Tower": 1
        },
        1
    ],
    "WORK_OF_ART": [
        {
            "Exhibit A series": 1,
            "Exhibit A": 2
        },
        3
    ],
    "GPE": [
        {
            "Russia": 1
        },
        1
    ],
    "NORP": [
        {
            "Russian": 3
        },
        3
    ]
}