{
    "ORG": [
        {
            "U.S. Department": 1,
            "Transition Team": 2,
            "United Nations Security Council": 2,
            "Kislyak": 5,
            "Transition Team Mar": 1,
            "United Nations": 1,
            "The Security Council": 1,
            "Obama Administration": 1,
            "1204": 1,
            "FBI": 1,
            "Office": 1,
            "U.N.": 2,
            "Washington Post": 2,
            "Reuters": 1,
            "EES Cross": 1
        },
        23
    ],
    "PERSON": [
        {
            "R. Crim": 1,
            "Michael T. Flynn": 2,
            "Michael Flynn": 1,
            "Kushner": 1,
            "Flynn": 7,
            "K.T. McFarland": 1,
            "McFarland": 1,
            "Kislyak": 2,
            "Flynn Russia": 1,
            "Karen DeYoung": 2,
            "Michelle Nichols": 1,
            "Lesley Wroughton": 1
        },
        21
    ],
    "CARDINAL": [
        {
            "6(e": 1,
            "1205": 1,
            "18": 1,
            "3": 1,
            "1210": 1,
            "167": 1
        },
        6
    ],
    "NORP": [
        {
            "Russian": 4,
            "Israeli": 3,
            "Palestinian": 1
        },
        8
    ],
    "GPE": [
        {
            "Russia": 2,
            "United States\u2019s": 1,
            "U.S.": 4,
            "Egypt": 1,
            "Israel": 2,
            "United States": 1
        },
        11
    ],
    "DATE": [
        {
            "2016": 1,
            "December 29, 2016": 1,
            "December 21, 2016": 1,
            "Dec. 1, 2017": 1,
            "2017 2018": 1,
            "1208": 1,
            "Dec. 28, 2016": 2,
            "Dec. 21, 2016": 1
        },
        9
    ],
    "LANGUAGE": [
        {
            "Russian": 1
        },
        1
    ],
    "FAC": [
        {
            "day.1209": 1
        },
        1
    ],
    "WORK_OF_ART": [
        {
            "Volume I, Section V.C.4": 1
        },
        1
    ]
}