{
    "ORG": [
        {
            "U.S. Department": 1,
            "Comey": 13,
            "Good Housekeeping": 1,
            "FBI": 7,
            "Comey again.368": 1,
            "Congress": 2,
            "Office": 1,
            "115th Cong": 6,
            "EES Cross": 1
        },
        33
    ],
    "PERSON": [
        {
            "R. Crim": 1,
            "Comey": 3,
            "personally.364": 1,
            "Boente": 2,
            "investigation.367": 1,
            "James B. Comey": 6,
            "Comey 8:27": 1
        },
        15
    ],
    "CARDINAL": [
        {
            "6(e": 1,
            "361": 1,
            "1": 8,
            "6": 5,
            "302": 4,
            "18": 3,
            "362": 1,
            "363": 1,
            "364": 1,
            "365": 1,
            "366": 1,
            "367": 1,
            "2": 1,
            "368": 1,
            "4/11/17": 1,
            "369": 1,
            "58": 1
        },
        33
    ],
    "DATE": [
        {
            "morning April 11, 2017": 1,
            "June 8, 2017": 6,
            "7": 2
        },
        9
    ],
    "PRODUCT": [
        {
            "3/30/17 Memorandum": 2,
            "Comey 3/30/17 Memorandum": 5
        },
        7
    ],
    "WORK_OF_ART": [
        {
            "Russian Election Interference": 2,
            "Russian Election Interference Before Senate Select Intelligence Committee": 4,
            "Daily Diary": 1
        },
        7
    ],
    "TIME": [
        {
            "8:31 a.m.": 1,
            "morning 8:26 EDT": 1,
            "minutes": 1
        },
        3
    ],
    "LAW": [
        {
            "Comey 4/11/17 Memorandum": 2
        },
        2
    ]
}