{
    "ORG": [
        {
            "U.S. Department": 1,
            "Comey": 16,
            "dinner;186": 1,
            "FBI": 5,
            "Comey 1/28/17 Memorandum": 1,
            "115th Cong": 3,
            "New York Times": 1,
            "NBC": 2,
            "Trump Press Conference": 1,
            "White House": 2,
            "Rybicki": 1,
            "McCabe": 1,
            "Rybicki 11/21/18": 2,
            "EES Cross": 1
        },
        38
    ],
    "PERSON": [
        {
            "R. Crim": 1,
            "Comey": 7,
            "occurred;187 Comey": 1,
            "James B. Comey": 3,
            "Michael S. Schmidt": 1,
            "Trump": 2,
            "Comey Demurred": 1,
            "Sarah Sanders": 1,
            "Ali Vitali": 1,
            "man pledge allegiance": 1,
            "Spicer": 1,
            "Spicer 10/16/17 302": 1,
            "McGahn": 1,
            "Donald J. Trump": 1,
            "Priebus": 1,
            "FBI Andrew McCabe": 1,
            "McCabe 8/17/17": 2
        },
        27
    ],
    "CARDINAL": [
        {
            "6(e": 1,
            "181": 1,
            "3": 5,
            "302": 6,
            "182": 1,
            "183": 1,
            "17": 1,
            "184": 1,
            "185": 1,
            "186": 1,
            "187": 1,
            "9": 1,
            "10": 1,
            "35": 1
        },
        23
    ],
    "DATE": [
        {
            "Daily": 1,
            "January 27.185": 1,
            "7": 2,
            "June 8, 2017": 4,
            "4": 4,
            "May 11, 2017": 2,
            "June 9, 2017": 1,
            "January 27": 2,
            "17": 1,
            "8": 1
        },
        19
    ],
    "WORK_OF_ART": [
        {
            "Diary": 1,
            "extend[ed": 1,
            "Russian Election Interference Before Senate Select Intelligence Committee": 3,
            "Daily Diary": 1
        },
        6
    ],
    "PRODUCT": [
        {
            "Comey 1/28/17 Memorandum": 1,
            "1/27/17": 1,
            "Comey": 1
        },
        3
    ],
    "MONEY": [
        {
            "302": 1
        },
        1
    ]
}