{
    "ORG": [
        {
            "U.S. Department": 1,
            "calls.690": 1,
            "United States Crocus Group": 1,
            "Manafort": 1,
            "Jury": 1,
            "Kaveladze": 1,
            "Goldstone": 1,
            "EES Cross": 1
        },
        8
    ],
    "PERSON": [
        {
            "R. Crim": 1,
            "Goldstone": 3,
            "Trump Jr. Emin": 1,
            "Trump Jr. Emin Agalarov": 1,
            "Aras Agalarov": 3,
            "Ike Kaveladze": 1,
            "Kaveladze": 6,
            "Aras Agalarov.692 Kaveladze": 1,
            "Aras": 1,
            "Veselnitskaya": 2,
            "Kaveladze translate.693": 1,
            "Trump Jr.": 4,
            "Emin": 1,
            "Manafort": 1,
            "Jared Kushner": 1,
            "Kushner attend.696 Kaveladze": 1,
            "Emin Agalarov": 1,
            "Roman Beniaminov": 1,
            "Hillary Clinton": 1,
            "Beniaminov": 1,
            "Kushner": 1,
            "Goldstone Trump Jr.": 4,
            "Donald Trump Jr": 1,
            "Donald Trump Jr. Grand Jury": 1,
            "Beniaminov 1/6/18": 1,
            "RG000068": 1,
            "Trump Jr. Goldstone": 2,
            "Goldstone Kaveladze": 2
        },
        46
    ],
    "CARDINAL": [
        {
            "6(e": 1,
            "690": 1,
            "691": 1,
            "302": 5,
            "6": 2,
            "692": 1,
            "1": 1,
            "2-3": 1,
            "693": 1,
            "694": 1,
            "695": 1,
            "696": 1,
            "697": 1,
            "698": 1,
            "3": 1,
            "114": 1
        },
        21
    ],
    "DATE": [
        {
            "June 6 June 7": 1,
            "June 6, 2016": 2,
            "June 7": 1,
            "Early June 8, 2016": 1,
            "7": 1
        },
        6
    ],
    "GPE": [
        {
            "New York": 1,
            "Georgia": 1,
            "U.S.": 1,
            "Moscow": 1,
            "that.698": 1
        },
        5
    ],
    "LAW": [
        {
            "Magnitsky Act": 2
        },
        2
    ],
    "NORP": [
        {
            "Russian": 1
        },
        1
    ],
    "TIME": [
        {
            "discuss 3:00 p.m.": 1
        },
        1
    ],
    "WORK_OF_ART": [
        {
            "RG000065-67": 1
        },
        1
    ],
    "PRODUCT": [
        {
            "302": 1,
            "Email": 3
        },
        4
    ]
}