{
    "ORG": [
        {
            "U.S. Department": 1,
            "EES Cross": 1
        },
        2
    ],
    "PERSON": [
        {
            "R. Crim": 1
        },
        1
    ],
    "CARDINAL": [
        {
            "33 34": 1,
            "33": 1,
            "205": 1,
            "34": 1,
            "204": 1
        },
        5
    ]
}