{
    "ORG": [
        {
            "U.S. Department": 1,
            "CIA": 2,
            "FBI": 1,
            "Independent Counsel": 1,
            "Trump Campaign": 1,
            "Manafort": 1,
            "White House": 1,
            "Russians.660 Simes": 1,
            "Office": 1,
            "Simes": 6,
            "Trump": 1,
            "C00007269": 1,
            "C00007981": 1,
            "Simes 3/27/18 302": 1,
            "Simes 3/27/18 302,": 1,
            "EES Cross": 1
        },
        22
    ],
    "PERSON": [
        {
            "R. Crim": 1,
            "Simes": 6,
            "Kushner": 10,
            "Trump": 1,
            "Bill Clinton": 1,
            "Clinton": 1,
            "Stephen Miller": 1,
            "Paul Manafort": 1,
            "Rick Gates": 1,
            "Kushner Clinton": 1,
            "promised.658 Simes": 1,
            "Reagan": 1,
            "Fritz Ermarth": 1,
            "Clintons": 1,
            "Vargas Simes et al.": 1,
            "Hagan Manafort": 2,
            "Simes Kushner": 2,
            "Putin": 1,
            "Kushner S. Miller et al.": 1
        },
        35
    ],
    "CARDINAL": [
        {
            "6(e": 1,
            "659": 2,
            "653": 1,
            "302": 8,
            "29-30": 2,
            "4/11/18": 1,
            "654": 1,
            "655": 1,
            "656": 1,
            "657": 1,
            "658": 1,
            "6": 2,
            "660": 1,
            "661": 1,
            "662": 1,
            "12": 1,
            "109": 1
        },
        27
    ],
    "WORK_OF_ART": [
        {
            "Russia Policy Memo": 1
        },
        1
    ],
    "GPE": [
        {
            "Russia": 4,
            "Manafort": 1,
            "U.S.": 3,
            "Ukraine": 1
        },
        9
    ],
    "NORP": [
        {
            "Russian": 1
        },
        1
    ],
    "DATE": [
        {
            "late 1990s": 1,
            "August 17": 1,
            "6": 2,
            "12": 2,
            "30": 3
        },
        9
    ],
    "PERCENT": [
        {
            "Simes 3/27/18": 2
        },
        2
    ],
    "TIME": [
        {
            "5:57:15 p.m.": 2,
            "6:09:21 p.m.": 2,
            "11:30:13 a.m.": 1,
            "302": 2
        },
        7
    ],
    "LOC": [
        {
            "Crimea": 1
        },
        1
    ],
    "PRODUCT": [
        {
            "Email": 1
        },
        1
    ]
}