{
    "ORG": [
        {
            "U.S. Department": 1,
            "Investigative Technique Investigative Technique Investigative Technique Investigative Technique Harm": 1
        },
        2
    ],
    "PERSON": [
        {
            "R. Crim": 1
        },
        1
    ],
    "CARDINAL": [
        {
            "6(e": 1,
            "279": 1,
            "178": 1
        },
        3
    ]
}