{
    "ORG": [
        {
            "U.S. Department": 1,
            "White House Counsel\u2019s": 1,
            "him.263 Priebus": 1,
            "him.265": 1,
            "FBI": 1,
            "media & Dems": 1,
            "Maralago": 1,
            "Priebus": 4,
            "McFarland": 1,
            "EES Cross": 1
        },
        13
    ],
    "PERSON": [
        {
            "R. Crim": 1,
            "McFarland": 12,
            "Priebus": 4,
            "Flynn": 6,
            "Eisenberg": 1,
            "letter.260": 1,
            "Flynn American": 1,
            "Mike Flynn": 1,
            "KTMF_00000047": 1,
            "Flynn vacation Carribean": 1,
            "Flynn-Trump": 1
        },
        30
    ],
    "CARDINAL": [
        {
            "6(e": 1,
            "264": 2,
            "256": 1,
            "17": 1,
            "257": 1,
            "302": 7,
            "11": 1,
            "258": 1,
            "259": 1,
            "260": 1,
            "261": 1,
            "262": 1,
            "263": 1,
            "9": 3,
            "265": 1,
            "43": 1
        },
        25
    ],
    "GPE": [
        {
            "Singapore": 1
        },
        1
    ],
    "WORK_OF_ART": [
        {
            "Eisenberg": 1
        },
        1
    ],
    "TIME": [
        {
            "Later evening": 1
        },
        1
    ],
    "DATE": [
        {
            "March 31, 2017": 1,
            "17": 5,
            "302": 1
        },
        7
    ],
    "NORP": [
        {
            "Trump-Russian": 1
        },
        1
    ]
}