{
    "ORG": [
        {
            "Office": 3,
            "Manafort": 10,
            "U.S. Department": 1,
            "National Anti-Corruption": 1,
            "EES Cross": 1
        },
        16
    ],
    "PERSON": [
        {
            "R. Crim": 1,
            "read,951 Kilimnik": 1,
            "Kilimnik": 5,
            "Zatynaiko Kilimnik": 1
        },
        8
    ],
    "CARDINAL": [
        {
            "6(e": 1,
            "53": 1,
            "54": 1,
            "955": 2,
            "958": 2,
            "951": 1,
            "952": 1,
            "956": 1,
            "957": 1,
            "302": 1,
            "1": 1,
            "40": 1,
            "143": 1
        },
        15
    ],
    "DATE": [
        {
            "10 days": 1,
            "February 26, 2017": 1,
            "2017 spring 2018": 1,
            "6": 1,
            "29-31": 1
        },
        5
    ],
    "GPE": [
        {
            "Russia": 1,
            "Yanukovych": 1,
            "Ukraine": 2,
            "Kilimnik Madrid": 1,
            "Madrid": 4,
            "Manafort": 1
        },
        10
    ],
    "LOC": [
        {
            "Kilimnik": 1
        },
        1
    ]
}