{
    "ORG": [
        {
            "U.S. Department": 1,
            "AMS Panel": 1,
            "GRU": 9,
            "DNC": 10,
            "DCCC": 2,
            "Microsoft": 1,
            "United": 1,
            "Netyksho": 1,
            "Investigative Technique 133": 1,
            "Investigative Technique Investigative Technique": 1,
            "Investigative Technique See SM-2589105-GJ": 1,
            "FBI": 1,
            "EES Cross": 1
        },
        31
    ],
    "PERSON": [
        {
            "R. Crim": 1,
            "DCCC": 2,
            "Hillary": 1,
            "Cruz": 1,
            "Netyksho Indictment": 1
        },
        6
    ],
    "CARDINAL": [
        {
            "6(e": 1,
            "thousands": 2,
            "26165": 1,
            "130": 1,
            "27": 1,
            "134": 1,
            "5": 1,
            "135": 1,
            "649": 1,
            "28": 1,
            "40": 1
        },
        12
    ],
    "GPE": [
        {
            "Arizona": 1,
            "U.S.": 1,
            "server.133": 1
        },
        3
    ],
    "DATE": [
        {
            "April 2016 June 2016": 1,
            "2016": 2,
            "April 14, 2016": 1,
            "approximately days": 1,
            "April 25, 2016": 1,
            "April 22, 2016": 1,
            "May 25, 2016 June 1, 2016": 1
        },
        8
    ],
    "WORK_OF_ART": [
        {
            "Trump": 1
        },
        1
    ],
    "QUANTITY": [
        {
            "70 gigabytes": 1
        },
        1
    ]
}