{
    "ORG": [
        {
            "U.S. Department": 1,
            "Government Outreach Contacts": 1,
            "Trump Campaign": 1,
            "Office": 4,
            "FARA": 1,
            "Trump": 1,
            "Investigative Technique": 1,
            "Congress": 1,
            "Brooke Group v.": 1,
            "Brown & Williamson Tobacco Corp.": 1,
            "EES Cross": 1
        },
        14
    ],
    "PERSON": [
        {
            "R. Crim": 1,
            "Paul Manafort Richard Gates": 1,
            "Hillary Clinton": 1,
            "Alexander Burrill": 1,
            "Bouvier": 1
        },
        5
    ],
    "CARDINAL": [
        {
            "6(e": 1,
            "One": 1,
            "1": 3,
            "509": 1,
            "227": 1,
            "18": 1,
            "371": 1,
            "321": 1,
            "352": 1
        },
        11
    ],
    "NORP": [
        {
            "Russian": 2,
            "Russians": 1
        },
        3
    ],
    "GPE": [
        {
            "United States": 1,
            "Ukraine": 1,
            "U.S.": 2
        },
        4
    ],
    "DATE": [
        {
            "June 9, 2016": 1,
            "June 9": 1,
            "August 2, 2017": 1,
            "1993": 1,
            "2014": 1
        },
        5
    ],
    "LAW": [
        {
            "U.S. Code": 1
        },
        1
    ]
}