{
    "ORG": [
        {
            "U.S. Department": 1,
            "Special Counsel": 1,
            "Sessions": 3,
            "DOJ": 1,
            "b. Nexus": 1,
            "Counsel": 2,
            "supra": 1,
            "EES Cross": 1
        },
        11
    ],
    "PERSON": [
        {
            "R. Crim": 1,
            "Lewandowski": 4,
            "Sessions": 5
        },
        10
    ],
    "CARDINAL": [
        {
            "6(e": 1,
            "one": 2,
            "97": 1
        },
        4
    ],
    "WORK_OF_ART": [
        {
            "meet Special Prosecutor explain unfair": 1
        },
        1
    ],
    "NORP": [
        {
            "Russians": 1,
            "Russian": 1
        },
        2
    ],
    "DATE": [
        {
            "June 19, 2017": 1,
            "days": 1
        },
        2
    ],
    "EVENT": [
        {
            "Sessions": 1
        },
        1
    ],
    "GPE": [
        {
            "Russia": 1
        },
        1
    ]
}