{
    "ORG": [
        {
            "U.S. Department": 1,
            "WikiLeaks": 3,
            "EES Cross": 1
        },
        5
    ],
    "PERSON": [
        {
            "R. Crim": 1,
            "Hillary Clinton": 1,
            "John Podesta": 1,
            "Podesta": 1,
            "Roger Stone": 4,
            "Stone": 1
        },
        9
    ],
    "CARDINAL": [
        {
            "6(e": 1,
            "1": 2
        },
        3
    ],
    "DATE": [
        {
            "months": 1,
            "July 27, 2016": 1,
            "October 7, 2016": 2,
            "June 1, 2016 13": 1
        },
        5
    ],
    "NORP": [
        {
            "ofthese": 1
        },
        1
    ],
    "GPE": [
        {
            "Russia": 1,
            "New York City": 1
        },
        2
    ],
    "FAC": [
        {
            "Trump Tower": 1
        },
        1
    ]
}