{
    "ORG": [
        {
            "U.S. Department": 1,
            "Marinello": 1,
            "Arthur Andersen": 1,
            "Phillips": 1,
            "F.3d 1261": 1,
            "b. Courts": 1,
            "McDonnell v. United States": 1,
            "S. Ct": 1,
            "F.3d 1124": 1,
            "United States": 1,
            "U.S.C.": 1,
            "Congress": 1,
            "EES Cross": 1
        },
        13
    ],
    "PERSON": [
        {
            "R. Crim": 1,
            "Aguilar": 4,
            "Reich": 1,
            "Gordon": 1,
            "Scalia": 4,
            "J.": 1,
            "Kennedy Thomas": 1,
            "Edwards": 1,
            "Brenson": 1,
            "Howard": 1,
            "n.9": 1,
            "Poindexter": 1
        },
        18
    ],
    "CARDINAL": [
        {
            "6(e": 1,
            "515": 4,
            "138": 1,
            "544": 1,
            "916": 1,
            "386": 1,
            "781": 2,
            "445": 1,
            "583": 1,
            "1264": 1,
            "479": 1,
            "186": 1,
            "136": 1,
            "2355": 1,
            "2373": 1,
            "561": 1,
            "368": 1,
            "402": 2,
            "710": 1,
            "1151": 1,
            "616": 2,
            "617": 1,
            "869": 1,
            "501": 1,
            "104": 1,
            "569": 1,
            "1083": 1,
            "951": 2,
            "369": 1,
            "18": 1,
            "378": 1
        },
        38
    ],
    "GPE": [
        {
            "U.S.": 6,
            "United States": 9,
            "Petruk": 2,
            "JJ.": 1
        },
        18
    ],
    "DATE": [
        {
            "1109": 1,
            "2019": 1,
            "2015": 1,
            "2009": 1,
            "Cir": 1,
            "2007": 1,
            "2016": 1,
            "2010": 1,
            "2013": 1,
            "2017": 1,
            "1997": 1,
            "1336": 1,
            "1991": 1
        },
        13
    ],
    "PRODUCT": [
        {
            "Section 1512(c)(2": 1
        },
        1
    ],
    "LAW": [
        {
            "F.3d 368": 1,
            "F.3d 438": 1,
            "F.3d 179": 1,
            "F.3d 445": 1,
            "\u00a7 1512(c)(2": 1,
            "F.3d 490": 1
        },
        6
    ]
}