{
    "ORG": [
        {
            "U.S. Department": 1,
            "Trump Campaign": 1,
            "Counsel": 1,
            "FBI": 1,
            "EES Cross": 1
        },
        5
    ],
    "PERSON": [
        {
            "R. Crim": 1
        },
        1
    ],
    "CARDINAL": [
        {
            "6(e": 1,
            "3": 1
        },
        2
    ],
    "GPE": [
        {
            "Russia": 1
        },
        1
    ],
    "DATE": [
        {
            "2016": 1
        },
        1
    ]
}