{
    "ORG": [
        {
            "U.S. Department": 1,
            "800 F. Supp": 1,
            "State": 1,
            "U.S.C.": 13,
            "Federal": 1,
            "Citizens United": 1,
            "FEC": 1,
            "Office": 1,
            "EES Cross": 1
        },
        21
    ],
    "PERSON": [
        {
            "R. Crim": 1,
            "Bluman v. FEC": 1
        },
        2
    ],
    "CARDINAL": [
        {
            "6(e": 1,
            "three": 1,
            "565": 1,
            "52": 11,
            "30121(a)(1)(A": 1,
            "22": 1,
            "8": 1,
            "five": 1,
            "1283": 1,
            "558": 1,
            "310": 1,
            "320": 1,
            "184": 1
        },
        23
    ],
    "FAC": [
        {
            "Tower": 1,
            "288": 1
        },
        2
    ],
    "GPE": [
        {
            "United States": 1,
            "U.S.": 3
        },
        4
    ],
    "PRODUCT": [
        {
            "2d 281": 1
        },
        1
    ],
    "DATE": [
        {
            "2011": 1,
            "2012": 1,
            "\u00a7": 5,
            "2010": 1
        },
        8
    ],
    "MONEY": [
        {
            "\u00a7 30101(9)(A)(i": 1
        },
        1
    ],
    "LAW": [
        {
            "FARA Immigration Nationality Act": 1
        },
        1
    ]
}