{
    "ORG": [
        {
            "U.S. Department": 1,
            "Kislyak": 2,
            "Sessions": 1,
            "Trump Campaign": 2,
            "Republican National Committee": 1,
            "Trump": 1,
            "The RNC Platform Committee": 1,
            "National Security Defense Platform Subcommittee": 1,
            "Luff": 3,
            "supra": 2,
            "Mayflower Hotel": 1,
            "Page": 1,
            "EES Cross": 1
        },
        18
    ],
    "PERSON": [
        {
            "R. Crim": 1,
            "relations.781 Sessions": 1,
            "Kislyak": 2,
            "Gordon": 11,
            "Carter Page.786": 1,
            "Gordon Kislyak": 1,
            "Sessions Kislyak": 1
        },
        18
    ],
    "CARDINAL": [
        {
            "6(e": 1,
            "12": 1,
            "302": 12,
            "9": 3,
            "779": 1,
            "1/17/18": 2,
            "22": 3,
            "3": 3,
            "782": 1,
            "783": 1,
            "784": 1,
            "786": 1,
            "10": 4,
            "787": 1,
            "788": 1,
            "789": 1,
            "124": 1
        },
        38
    ],
    "EVENT": [
        {
            "Sessions": 1,
            "Convention": 2
        },
        3
    ],
    "TIME": [
        {
            "minutes": 1,
            "Later evening": 1
        },
        2
    ],
    "GPE": [
        {
            "Azerbaijan Kazakhstan": 1,
            "Russia": 1,
            "U.S.": 1
        },
        3
    ],
    "DATE": [
        {
            "2016": 2,
            "2012": 2,
            "July 10, 2016": 1,
            "months": 1,
            "April 26, 2016": 1
        },
        7
    ],
    "MONEY": [
        {
            "302": 3
        },
        3
    ]
}