{
    "ORG": [
        {
            "U.S. Department": 1,
            "Russian attorney.663": 1,
            "supra": 2,
            "Crown": 1,
            "Trump": 1,
            "Manafort": 1,
            "SSCI": 1,
            "records.669 Trump Organization": 1,
            "Trump Organization": 1,
            "counsel.670": 1,
            "Fox News": 1,
            "Hicks": 1,
            "Raffel": 2,
            "IV.A.5": 1,
            "SSCI Donald J. Trump President, Inc.": 1,
            "Goldstone": 1,
            "Goldstone & Garten": 1,
            "Corallo": 1,
            "Priebus": 1,
            "EES Cross": 1
        },
        22
    ],
    "PERSON": [
        {
            "R. Crim": 1,
            "Donald Trump Jr.": 1,
            "Paul Manafort": 1,
            "Jared Kushner": 1,
            "Hillary": 1,
            "Trump": 2,
            "Trump Jr.": 1,
            "Kushner": 1,
            "Trump Tower": 1,
            "Hillary Clinton": 1,
            "Mark Corallo": 1,
            "Priebus": 2,
            "Sean Hannity": 1,
            "Goldstone Trump Jr.": 1,
            "Trump Jr. Goldstone": 1,
            "Donald J. Trump": 1
        },
        18
    ],
    "GPE": [
        {
            "Russia": 5,
            "U.S.": 2
        },
        7
    ],
    "NORP": [
        {
            "Russian": 8,
            "Democrats": 1
        },
        9
    ],
    "DATE": [
        {
            "June 9": 5,
            "2012": 1,
            "June 16, 2015": 1,
            "later week June 2017": 1,
            "June 21 22": 1,
            "late June": 1,
            "Nov. 20, 2018": 1,
            "8": 1,
            "7": 1
        },
        13
    ],
    "LAW": [
        {
            "Magnitsky Act": 1
        },
        1
    ],
    "WORK_OF_ART": [
        {
            "The Trump Campaign": 1
        },
        1
    ],
    "TIME": [
        {
            "12 pm January 20, 2017": 1,
            "11:01 a.m. ET": 2
        },
        3
    ],
    "CARDINAL": [
        {
            "663": 1,
            "302": 8,
            "1": 1,
            "2": 2,
            "664": 1,
            "665": 1,
            "666": 1,
            "4": 1,
            "667": 1,
            "668": 1,
            "669": 1,
            "670": 1,
            "12": 1,
            "6/5/17": 1,
            "3": 2,
            "671": 1,
            "672": 1,
            "99": 1
        },
        27
    ],
    "PRODUCT": [
        {
            "Hicks 3/13/18": 1
        },
        1
    ]
}