{
    "ORG": [
        {
            "U.S. Department": 1,
            "n.1": 1,
            "Congress": 1,
            "Office": 1,
            "Justice Manual": 1,
            "EES Cross": 1
        },
        6
    ],
    "PERSON": [
        {
            "R. Crim": 1,
            "Willis": 1,
            "Nosal": 1
        },
        3
    ],
    "CARDINAL": [
        {
            "6(e": 1,
            "2": 1,
            "476": 1,
            "99": 1,
            "5": 1,
            "676": 1,
            "859": 1,
            "179": 1
        },
        8
    ],
    "PRODUCT": [
        {
            "F.3d 1121": 1
        },
        1
    ],
    "DATE": [
        {
            "1986": 2,
            "2012": 1
        },
        3
    ],
    "LAW": [
        {
            "Section 1030": 1,
            "F.3d 854": 1
        },
        2
    ],
    "GPE": [
        {
            "United States": 1
        },
        1
    ]
}