{
    "TIME": [
        {
            "______________________________________________________________________________": 1
        },
        1
    ],
    "ORG": [
        {
            "U.S. Department": 1,
            "Office District Columbia": 4,
            "United States v. Internet Research Agency": 1,
            "Russian Social Media Campaign": 1,
            "Office District Columbia National Security Division": 1,
            "Russian Hacking Operations": 1,
            "Office Western District Pennsylvania National Security Division": 1,
            "Special Counsel": 1,
            "Office": 1,
            "III": 1,
            "Concord Management & Consulting LLC": 1,
            "EES Cross-Out elb Cross-Out": 1
        },
        15
    ],
    "PERSON": [
        {
            "R. Crim": 1,
            "Richard Gates": 1,
            "Konstantin Kilimnik": 1,
            "Paul Manafort": 2,
            "Viktor Netyksho": 1,
            "William Samuel Patten": 1,
            "Patten": 2,
            "Viktor Yanukovych": 1,
            "Rod J. Rosenstein Robert S. Mueller": 1
        },
        11
    ],
    "CARDINAL": [
        {
            "6(e": 1,
            "3": 1,
            "4": 1,
            "5": 1,
            "6": 1,
            "7": 1,
            "8": 1,
            "9": 1,
            "1 One": 1
        },
        9
    ],
    "GPE": [
        {
            "United States": 5,
            "U.S.": 8,
            "District Columbia": 1,
            "Virginia": 1
        },
        15
    ],
    "NORP": [
        {
            "Ukrainian": 1
        },
        1
    ],
    "DATE": [
        {
            "August 2, 2017": 1
        },
        1
    ]
}