{
    "ORG": [
        {
            "U.S. Department": 1,
            "Sessions": 6,
            "FBI": 1,
            "Comey": 1,
            "White House": 5,
            "Hicks": 2,
            "supra": 1,
            "Undated Draft Memoranda": 2,
            "The White House Counsel\u2019s Office": 1,
            "EES Cross": 1
        },
        21
    ],
    "PERSON": [
        {
            "R. Crim": 1,
            "Sessions": 2,
            "Hicks": 1,
            "Hunt": 1,
            "Sessions stay.519": 1,
            "letter.520": 1,
            "Priebus Bannon": 1,
            "Hunt-000041": 1,
            "Trump": 1
        },
        10
    ],
    "CARDINAL": [
        {
            "6(e": 1,
            "518": 2,
            "509": 1,
            "1/17/18": 5,
            "510": 1,
            "511": 1,
            "302": 5,
            "512": 1,
            "513": 1,
            "9": 2,
            "515": 1,
            "5/18/17": 1,
            "516": 1,
            "517": 1,
            "519": 1,
            "520": 1,
            "521": 1,
            "79": 1
        },
        28
    ],
    "GPE": [
        {
            "Hollywood": 1
        },
        1
    ],
    "DATE": [
        {
            "May 18, 2017": 1,
            "May 18": 1,
            "yesterday": 1,
            "14": 6,
            "21": 2,
            "October 7, 2016": 1,
            "February 27, 2017": 1
        },
        13
    ],
    "WORK_OF_ART": [
        {
            "Sessions": 1,
            "Volume I, Section III.D.1": 1
        },
        2
    ],
    "LAW": [
        {
            "Hunt 5/17/17 Notes": 2,
            "Hunt 5/18/17 Notes": 1
        },
        3
    ],
    "MONEY": [
        {
            "302": 5
        },
        5
    ],
    "LOC": [
        {
            "Access Hollywood": 1
        },
        1
    ],
    "PRODUCT": [
        {
            "Hunt 5/18/17 Notes": 5,
            "Hunt-000047-49": 2,
            "Hunt-000048-49": 1
        },
        8
    ]
}