{
    "ORG": [
        {
            "U.S. Department": 1,
            "Obama Administration": 1,
            "LTG": 1,
            "LTG Flynn": 2,
            "EES Cross-Out elb Cross-Out": 1
        },
        6
    ],
    "PERSON": [
        {
            "R. Crim": 1,
            "i.": 1,
            "b.": 1,
            "Michael Flynn": 1,
            "K.T. McFarland": 1,
            "Steve Bannon": 1,
            "Reince Priebus": 1,
            "Jared Kushner": 1,
            "Erik Prince": 1,
            "c.": 1,
            "Sergey Kislyak": 1,
            "LTG Flynn": 4,
            "Kislyak": 5,
            "iii": 1,
            "d.": 1,
            "LTG Flynn\u2019s": 1
        },
        23
    ],
    "CARDINAL": [
        {
            "6(e": 1
        },
        1
    ],
    "GPE": [
        {
            "Russia": 10,
            "Crimea": 1
        },
        11
    ],
    "EVENT": [
        {
            "World Chess Championship": 1
        },
        1
    ],
    "DATE": [
        {
            "November 10, 2016": 1,
            "December 2016": 1,
            "December 29 December 31, 2016": 2,
            "December 29, 2016": 2,
            "December 31, 2016": 2,
            "January 20, 2017": 1
        },
        9
    ],
    "NORP": [
        {
            "Russians": 1,
            "Russian": 4
        },
        5
    ]
}