{
    "ORG": [
        {
            "U.S. Department": 1,
            "Trump Tower Moscow project.294": 1,
            "Trump Organization": 5,
            "Trump Organization Crocus Group": 1,
            "Crocus Group": 4,
            "Agalarov": 1,
            "building.300": 1,
            "Crocus Group.302 Communications": 1,
            "Trump Jr. & E. Agalarov": 1,
            "Trump Jr. & Kaveladze": 1,
            "Tropea McGee & Kaveladze": 1,
            "Kaveladze Tropea & McGee": 1,
            "EES Cross": 1
        },
        20
    ],
    "PERSON": [
        {
            "R. Crim": 1,
            "Donald J. Trump": 1,
            "Ivanka Trump": 2,
            "Emin Agalarov": 1,
            "E. Agalarov": 2,
            "KAV_01147": 1,
            "Kaveladze Trump Jr. et al.": 2,
            "McGee Khoo et al.": 2,
            "McGee Trump Jr. et al.": 1,
            "Goldstone": 1,
            "Trump Jr. Kaveladze et al.": 2,
            "Khoo McGee et al.": 3
        },
        19
    ],
    "CARDINAL": [
        {
            "6(e": 1,
            "294": 1,
            "295": 1,
            "296": 1,
            "297": 1,
            "298": 1,
            "300": 1,
            "301": 1,
            "302": 1,
            "303": 1,
            "68": 1
        },
        11
    ],
    "DATE": [
        {
            "December 23, 2013": 1,
            "January February 2014.296": 1,
            "January 2014 November 2014": 1,
            "January 24, 2014": 1,
            "February 2014": 1,
            "March 2014 July 2014": 1,
            "July 2014": 1,
            "August 2014": 1,
            "September 2014": 1,
            "November 2014": 1,
            "November 24": 1,
            "2014.303": 1,
            "August 26, 2014": 1
        },
        13
    ],
    "PERCENT": [
        {
            "3.5%": 1
        },
        1
    ],
    "GPE": [
        {
            "Moscow": 2,
            "Crocus City": 3,
            "Marriott": 1
        },
        6
    ],
    "WORK_OF_ART": [
        {
            "Crocus City": 1
        },
        1
    ],
    "PRODUCT": [
        {
            "Crocus City.301": 1,
            "Technique 299": 1,
            "7/17/14 Email": 1
        },
        3
    ],
    "TIME": [
        {
            "8:01 a.m.": 1
        },
        1
    ]
}