{
    "ORG": [
        {
            "U.S. Department": 1,
            "Manafort": 14,
            "Deripaska": 1,
            "Opposition Bloc": 1,
            "Trump Campaign": 1,
            "Wikileaks": 1,
            "Trump": 3,
            "DNC": 1,
            "Office": 1,
            "Administration": 1,
            "EES Cross": 1
        },
        26
    ],
    "PERSON": [
        {
            "R. Crim": 1,
            "Gates Kilimnik": 1,
            "Patten": 2,
            "Manafort Kilimnik": 1,
            "Gates Manafort": 1,
            "Kilimnik": 2,
            "Gates": 2,
            "Kushner": 3,
            "Clinton": 3,
            "Trump": 1,
            "Manafort": 1,
            "Manafort Kushner": 2
        },
        20
    ],
    "CARDINAL": [
        {
            "6(e": 1,
            "933": 1,
            "302": 8,
            "2": 1,
            "934": 1,
            "5": 2,
            "935": 1,
            "936": 1,
            "937": 1,
            "75": 1,
            "938": 1,
            "1": 2,
            "4": 2,
            "939": 1,
            "141": 1
        },
        25
    ],
    "GPE": [
        {
            "payment.933": 1,
            "Cuba": 1,
            "South Korea": 1,
            "Japan": 1,
            "China": 1,
            "Ukraine": 1,
            "Russia": 1
        },
        7
    ],
    "DATE": [
        {
            "mid-August 2016": 1,
            "approximately weeks": 1,
            "November": 1,
            "October 21, 2016": 1,
            "November 5, 2016": 1,
            "Tuesday": 1,
            "November 8, 2016": 1,
            "early 2017": 1,
            "7": 1,
            "12": 1
        },
        10
    ],
    "NORP": [
        {
            "pro-Russian": 1,
            "Russians": 1
        },
        2
    ],
    "WORK_OF_ART": [
        {
            "Securing Victory": 1,
            "Trump": 2
        },
        3
    ],
    "LOC": [
        {
            "Middle East": 1
        },
        1
    ]
}