{
    "ORG": [
        {
            "U.S. Department": 1,
            "Kislyak": 1,
            "Transition Team Trump Administration": 1,
            "Trump Campaign": 1,
            "EES Cross": 1
        },
        5
    ],
    "PERSON": [
        {
            "R. Crim": 1,
            "Flynn": 2
        },
        3
    ],
    "CARDINAL": [
        {
            "6(e": 1,
            "1275": 1,
            "302": 1,
            "9": 1,
            "173": 1
        },
        5
    ],
    "NORP": [
        {
            "Russian": 3
        },
        3
    ]
}