{
    "ORG": [
        {
            "U.S. Department": 1,
            "Twitter": 6,
            "Facebook": 9,
            "Structure Internet Research Agency": 1,
            "Social Media Influence": 1,
            "115th Cong": 1,
            "General Counsel Facebook": 1,
            "News Feeds": 1,
            "IRA": 1,
            "EES Cross": 1
        },
        23
    ],
    "PERSON": [
        {
            "R. Crim": 1,
            "Colin Stretch": 1
        },
        2
    ],
    "CARDINAL": [
        {
            "6(e": 1,
            "Instagram": 2,
            "tens thousands": 1,
            "470": 1,
            "80,000": 2,
            "126 million": 1,
            "3,814": 1,
            "approximately 1.4 million": 1,
            "11": 1,
            "12": 1,
            "roughly 29 million": 1,
            "approximately 126 million": 1,
            "170": 1,
            "approximately 120,000": 1,
            "7": 1,
            "8": 1,
            "92": 1,
            "9": 1,
            "86": 1
        },
        21
    ],
    "GPE": [
        {
            "U.S.": 3,
            "US": 1
        },
        4
    ],
    "DATE": [
        {
            "November 2017": 1,
            "January 2015 August 2017": 1,
            "January 2018": 1,
            "2016": 2,
            "13": 1,
            "two-year": 1,
            "Jan. 31, 2018": 1
        },
        8
    ],
    "NORP": [
        {
            "Russian": 1
        },
        1
    ]
}