{
    "ORG": [
        {
            "U.S. Department": 1,
            "VP": 1,
            "Trump Organization Campaign": 1,
            "Sater": 2,
            "Congress": 1,
            "Office": 1,
            "Trump Moscow": 1,
            "EES Cross-Out": 1
        },
        9
    ],
    "PERSON": [
        {
            "R. Crim": 1,
            "Cohen": 12,
            "Klokov": 1,
            "government.344": 1,
            "Sater": 1,
            "Dmitry Peskov": 1,
            "Sergei Ivanov": 1,
            "Putin": 1,
            "through.346": 1,
            "Peskov": 1,
            "soon.347": 1,
            "Sergei": 1,
            "Klokov Cohen": 1,
            "Cohen Klokov": 1,
            "Cohen Sater": 1,
            "Cohen pr_peskova@prpress.gof.ru": 1,
            "Cohen info@prpress.gov.ru": 1,
            "Cohen pr_peskova@prpress.gov.ru": 1
        },
        29
    ],
    "CARDINAL": [
        {
            "6(e": 1,
            "342": 1,
            "343": 1,
            "344": 1,
            "302": 1,
            "12": 1,
            "345": 1,
            "346": 1,
            "347": 1,
            "348": 1,
            "74": 1
        },
        11
    ],
    "GPE": [
        {
            "Klokov": 1,
            "Moscow": 2,
            "Russia": 1,
            "Moscow City": 1
        },
        5
    ],
    "NORP": [
        {
            "Russian": 3
        },
        3
    ],
    "DATE": [
        {
            "late December 2015": 1,
            "January 11, 2016": 1,
            "January 14, 2016": 1,
            "past months": 1,
            "Two days later": 1,
            "January 2016": 1
        },
        6
    ],
    "FAC": [
        {
            "Trump Tower": 1
        },
        1
    ],
    "TIME": [
        {
            "7:40 a.m.": 1,
            "12:56 p.m.": 1,
            "6:17 p.m.": 1,
            "9:12 a.m.": 1,
            "9:21 a.m.": 1,
            "10:28 a.m.": 1
        },
        6
    ],
    "PRODUCT": [
        {
            "FS00004": 1,
            "Text Message": 1
        },
        2
    ]
}