{
    "ORG": [
        {
            "U.S. Department": 1,
            "giv[e": 1,
            "FACA": 1,
            "Congress": 3,
            "EES Cross": 1
        },
        7
    ],
    "PERSON": [
        {
            "R. Crim": 1,
            "BALLENTINE": 1,
            "Santos": 1,
            "Scalia": 1,
            "J.": 1,
            "Salinas": 1,
            "Brogan v. United States": 1,
            "compass": 1,
            "Loughrin": 1,
            "Rainey": 1,
            "Nixon": 1,
            "Loving v. United States": 1,
            "Clinton": 1,
            "James Madison": 1,
            "J. Cooke ed": 1
        },
        15
    ],
    "CARDINAL": [
        {
            "6(e": 1,
            "276": 1,
            "553": 1,
            "522": 3,
            "491": 1,
            "467": 1,
            "59-60": 1,
            "398": 1,
            "406": 1,
            "573": 1,
            "757": 2,
            "1503": 2,
            "1512(c)(2": 1,
            "2": 1,
            "433": 1,
            "443": 1,
            "517": 1,
            "520": 1,
            "171": 1
        },
        23
    ],
    "DATE": [
        {
            "1969": 1,
            "2008": 1,
            "1997": 2,
            "1998": 1,
            "1505": 1,
            "1977": 1,
            "1996": 1,
            "47": 1,
            "1961": 1
        },
        10
    ],
    "GPE": [
        {
            "United States": 2,
            "U.S.": 7,
            "controul": 1
        },
        10
    ],
    "LAW": [
        {
            "Article II defense application statutes": 1,
            "Powers Principles Support Conclusion Congress": 1,
            "Article II": 2
        },
        4
    ]
}