{
    "ORG": [
        {
            "U.S. Department": 1,
            "Logan Act": 1,
            "circumstances.162": 1,
            "White House": 4,
            "Department Justice": 5,
            "FBI": 5,
            "Draft Memorandum": 2,
            "Office Counsel": 2,
            "Burnham": 2,
            "Comey": 2,
            "115th Cong": 2,
            "Priebus": 1,
            "Dhillon": 1,
            "Senate Select Intelligence Committee": 1,
            "EES Cross": 1
        },
        31
    ],
    "PERSON": [
        {
            "R. Crim": 1,
            "McGahn": 3,
            "Yates": 8,
            "Flynn again.163": 1,
            "Flynn": 3,
            "Comey": 2,
            "enforcement.169": 1,
            "Bannon": 3,
            "Priebus": 1,
            "Comey alone.170 Comey": 1,
            "Eisenberg 11/29/17": 2,
            "SCR015_00199": 1,
            "Eisenberg": 2,
            "James B. Comey": 2
        },
        31
    ],
    "CARDINAL": [
        {
            "6(e": 1,
            "162": 1,
            "302": 14,
            "9": 4,
            "163": 1,
            "164": 1,
            "165": 1,
            "5": 3,
            "166": 1,
            "1": 1,
            "2/2/17": 1,
            "167": 1,
            "1/27/17": 1,
            "2-3": 1,
            "168": 1,
            "17": 2,
            "169": 1,
            "2": 1,
            "170": 1,
            "171": 1,
            "3": 1,
            "6": 1,
            "33": 1
        },
        42
    ],
    "TIME": [
        {
            "That morning": 1
        },
        1
    ],
    "LAW": [
        {
            "Logan Act": 1
        },
        1
    ],
    "DATE": [
        {
            "January 27": 1,
            "8": 3,
            "9": 1,
            "early February": 1,
            "6": 1,
            "June 8, 2017": 2,
            "302": 2,
            "17": 1
        },
        12
    ],
    "GPE": [
        {
            "Russia": 2
        },
        2
    ],
    "WORK_OF_ART": [
        {
            "Daily Diary": 1,
            "Russian Election Interference": 1
        },
        2
    ]
}