{
    "ORG": [
        {
            "U.S. Department": 1,
            "Comey": 12,
            "FBI director.172": 1,
            "FBI": 11,
            "115th Cong": 7,
            "Comey 1/28/17 Memorandum": 1,
            "Comey 1/28/18 Memorandum": 1,
            "EES Cross": 1
        },
        35
    ],
    "PERSON": [
        {
            "R. Crim": 1,
            "Comey": 5,
            "Steele": 1,
            "false.174 Comey": 1,
            "Flynn": 2,
            "James B. Comey": 7
        },
        17
    ],
    "CARDINAL": [
        {
            "6(e": 1,
            "172": 1,
            "302": 7,
            "1": 1,
            "3": 9,
            "173": 1,
            "174": 1,
            "175": 1,
            "176": 1,
            "4": 2,
            "177": 1,
            "178": 1,
            "2": 1,
            "179": 1,
            "180": 1,
            "34": 1
        },
        31
    ],
    "DATE": [
        {
            "January 6, 2017": 1,
            "7": 7,
            "June 8, 2017": 7,
            "4": 3
        },
        18
    ],
    "PRODUCT": [
        {
            "Comey": 2,
            "Comey 1/28/17 Memorandum": 2
        },
        4
    ],
    "LAW": [
        {
            "Comey 1/28/17 Memorandum": 4
        },
        4
    ],
    "WORK_OF_ART": [
        {
            "Russian Election Interference Before Senate Select Intelligence Committee": 7
        },
        7
    ]
}