{
    "ORG": [
        {
            "U.S. Department": 1,
            "2d Sess": 1,
            "Congress": 2,
            "The Senate Committee": 1,
            "Central Intelligence Agency": 1,
            "FBI": 1,
            "United States v.": 1,
            "D.C. Cir. 1976": 1,
            "White House": 1,
            "Supreme Court": 1,
            "Arthur Andersen": 1,
            "Senate": 1,
            "House": 1,
            "Cong.": 1,
            "EES Cross": 1
        },
        16
    ],
    "PERSON": [
        {
            "R. Crim": 1,
            "Haldeman": 2,
            "Marinello v. United States": 1,
            "Poindexter": 1,
            "Heinz": 2
        },
        7
    ],
    "CARDINAL": [
        {
            "6(e": 1,
            "532": 1,
            "17": 2,
            "18": 2,
            "One": 1,
            "559": 2,
            "120-129": 1,
            "4": 1,
            "138": 1,
            "544": 1,
            "951": 1,
            "369": 1,
            "382": 1,
            "128": 1,
            "26,810": 1,
            "1503": 1,
            "165": 1
        },
        20
    ],
    "GPE": [
        {
            "Cong.": 1,
            "U.S.": 1,
            "United States": 1
        },
        3
    ],
    "LAW": [
        {
            "Section 1512": 1,
            "Section 1512(c)(2": 2,
            "F.3d 51": 1,
            "Section III.B.1": 1
        },
        5
    ],
    "PRODUCT": [
        {
            "S. 2420": 1,
            "Section 1512(c)(2": 1
        },
        2
    ],
    "EVENT": [
        {
            "Watergate": 2
        },
        2
    ],
    "DATE": [
        {
            "86-87": 1,
            "2018": 1,
            "1991": 1,
            "1982": 1
        },
        4
    ]
}