{
    "ORG": [
        {
            "U.S. Department": 1,
            "Facebook": 4,
            "matter.510": 1,
            "Trump": 1,
            "Trump Campaign": 2,
            "Papadopoulos & Millian": 2,
            "FBI": 1,
            "EES Cross": 1
        },
        13
    ],
    "PERSON": [
        {
            "R. Crim": 1,
            "Paul Manafort": 1,
            "Trump": 1,
            "Millian": 2,
            "Papadopoulos": 8,
            "Millian Chicago": 1,
            "Carter Page Carter Page": 1,
            "Page": 1,
            "Denysyk Papadopoulos": 1,
            "Millian Papadopoulos": 4
        },
        21
    ],
    "CARDINAL": [
        {
            "6(e": 1,
            "508": 1,
            "509": 1,
            "510": 1,
            "302": 1,
            "2": 1,
            "511": 1,
            "512": 1,
            "513": 1,
            "515": 1,
            "516": 1,
            "95": 1
        },
        12
    ],
    "NORP": [
        {
            "Russian-Americans": 1,
            "pro-Russian": 1,
            "Russian": 4
        },
        6
    ],
    "DATE": [
        {
            "August 23, 2016": 1,
            "November 9, 2016": 1,
            "November 14, 2016": 1,
            "late January 2017.515 3": 1,
            "January 2016 September 2016": 1,
            "March": 1,
            "2008": 1,
            "2013": 1,
            "2016": 2,
            "302": 1,
            "19": 1,
            "March 2017": 1
        },
        13
    ],
    "LANGUAGE": [
        {
            "Russian": 1
        },
        1
    ],
    "FAC": [
        {
            "Trump Hotel Tower": 1
        },
        1
    ],
    "GPE": [
        {
            "Washington": 1,
            "D.C.": 1,
            "Russia": 2,
            "Moscow": 1
        },
        5
    ],
    "TIME": [
        {
            "2:55:36 a.m.": 1,
            "9:35:05 p.m.": 1,
            "1:32:11 a.m.": 1,
            "5:09 - 5:11 p.m.": 1,
            "5:10:54 p.m.": 1,
            "4:37-4:39 a.m.": 1
        },
        6
    ],
    "WORK_OF_ART": [
        {
            "12/7/16 Facebook Message": 1
        },
        1
    ]
}