{
    "ORG": [
        {
            "U.S. Department": 1,
            "DCLeaks WikiLeaks": 1,
            "WikiLeaks": 9,
            "Podesta": 3,
            "Assange": 1,
            "GRU": 2,
            "DNC": 2,
            "WikiLeaks site.173": 1,
            "WikiLeaks DCLeaks": 1,
            "Investigative Technique": 1,
            "PGP": 1,
            "Twitter": 1,
            "@dcleaks": 1,
            "Investigative Technique The Office": 1,
            "Twitter DM": 1,
            "@Guccifer_2 & @WikiLeaks": 1,
            "Apple": 1,
            "Investigative Technique Investigative Technique 173": 1,
            "Washington Post": 1,
            "EES Cross": 1
        },
        32
    ],
    "PERSON": [
        {
            "R. Crim": 1,
            "Guccifer": 1,
            "emails.170": 1,
            "Guccifer 2.0": 1,
            "Andrew M\u00fcller-Maguhn WikiLeaks": 1,
            "Ellen Nakashima et al.": 1,
            "Julian Assange": 1
        },
        7
    ],
    "DATE": [
        {
            "September 19": 1,
            "July 2016": 1,
            "October 2, 2016": 1,
            "September 20, 2016": 1,
            "September 22, 2016": 2,
            "July 14, 2016": 1,
            "summer 2016": 1,
            "September 19, 2016": 1,
            "Jan. 17, 2018": 1
        },
        10
    ],
    "CARDINAL": [
        {
            "2016.171": 1,
            "28": 1,
            "171": 1,
            "63": 2,
            "172": 1,
            "2284941": 1,
            "62": 1,
            "174": 1,
            "175": 1,
            "47": 1
        },
        11
    ],
    "WORK_OF_ART": [
        {
            "Submission": 1,
            "Hi DCLeaks": 1,
            "wiki_mail.txt.gpg": 1
        },
        3
    ],
    "NORP": [
        {
            "German": 1
        },
        1
    ],
    "GPE": [
        {
            "WikiLeaks": 1
        },
        1
    ]
}