{
    "ORG": [
        {
            "U.S. Department": 1,
            "Internet Research Agency": 1,
            "LLC": 1,
            "Concord Management Consulting LLC": 1,
            "IRA": 1,
            "Trump Campaign": 2,
            "Facebook": 1,
            "Office": 2,
            "FBI": 3,
            "United States v. Internet Research Agency": 1,
            "EES Cross": 1
        },
        15
    ],
    "PERSON": [
        {
            "R. Crim": 1,
            "Hillary Clinton": 1
        },
        2
    ],
    "CARDINAL": [
        {
            "6(e": 1,
            "millions": 1,
            "2": 1,
            "3": 1,
            "44": 1,
            "13": 1,
            "18": 1,
            "5": 1,
            "52": 1
        },
        9
    ],
    "LANGUAGE": [
        {
            "RUSSIAN": 1,
            "Russian": 1
        },
        2
    ],
    "NORP": [
        {
            "Russian": 6
        },
        6
    ],
    "PRODUCT": [
        {
            "Yevgeniy Viktorovich Prigozhin": 1
        },
        1
    ],
    "GPE": [
        {
            "U.S.": 13,
            "United States": 4,
            "et al.": 1
        },
        18
    ],
    "DATE": [
        {
            "early 2014": 1,
            "mid-2014": 1,
            "2016": 2,
            "early mid-2016": 1,
            "1:18-cr-32": 1,
            "Feb. 16, 2018": 1,
            "54": 1,
            "55(a": 1,
            "56": 1,
            "74": 1
        },
        11
    ],
    "WORK_OF_ART": [
        {
            "Internet Research Agency Indictment": 1
        },
        1
    ]
}