{
    "ORG": [
        {
            "U.S. Department": 1,
            "FBI": 3,
            "Congress": 1,
            "Comey": 7,
            "Department Justice": 2,
            "DOJ": 1,
            "Senate Judiciary Committee": 2,
            "Senate": 1,
            "FBI Senate Judiciary Committee": 1,
            "115th Cong": 2,
            "Donaldson 4/11/17 Notes": 1,
            "NK/China/Sapping Credibility": 1,
            "EES Cross": 1
        },
        24
    ],
    "PERSON": [
        {
            "R. Crim": 1,
            "Comey Overview Comey": 1,
            "Comey": 6,
            "Clinton": 1,
            "Rod Rosenstein": 1,
            "McGahn": 1,
            "investigation.384": 1,
            "James Comey": 1
        },
        13
    ],
    "CARDINAL": [
        {
            "6(e": 1,
            "1": 1,
            "383": 1,
            "384": 1,
            "10-11": 2,
            "385": 1,
            "386": 1,
            "62": 1
        },
        9
    ],
    "DATE": [
        {
            "May 3, 2017": 4,
            "Two days later": 1,
            "May 5, 2017": 1,
            "May 9": 1,
            "week": 1,
            "7": 1,
            "\u2013 Day": 1,
            "70": 1
        },
        11
    ],
    "GPE": [
        {
            "Russia": 5
        },
        5
    ],
    "NORP": [
        {
            "Russian": 1
        },
        1
    ],
    "PRODUCT": [
        {
            "leaders.385": 1,
            "12/12/17 302": 1
        },
        2
    ],
    "WORK_OF_ART": [
        {
            "P Called Comey": 1
        },
        1
    ]
}