{
    "ORG": [
        {
            "U.S. Department": 1,
            "Georgiy": 1,
            "Basic Element": 1,
            "Carter Foreign": 1,
            "Trump Campaign": 4,
            "FBI": 1,
            "Bradley Digital": 1,
            "Peskov": 1,
            "Walid Foreign": 1,
            "Transatlantic Parliamentary Group Counterterrorism": 1,
            "TAG": 1,
            "Pinedo": 1,
            "Podesta": 1,
            "GRU": 1,
            "WikiLeaks": 1,
            "Carter Page": 1,
            "Trump Tower Moscow": 1,
            "Central Intelligence Agency": 1,
            "White House": 2,
            "Republican National Committee": 1,
            "Concord Catering Concord Management Consulting": 1,
            "Internet Research Agency": 1,
            "social media": 1,
            "EES Cross-Out elb Cross-Out": 1
        },
        28
    ],
    "PERSON": [
        {
            "R. Crim": 1,
            "Oganov": 1,
            "Oleg Deripaska": 1,
            "Paul Manafort": 1,
            "Henry": 1,
            "Hillary Clinton": 1,
            "Roger Stone": 1,
            "Papadopoulos": 1,
            "George Foreign": 1,
            "Joseph Mifsud Russians": 1,
            "Clinton": 1,
            "Patten": 1,
            "William": 1,
            "Sam": 1,
            "Jr.": 1,
            "Konstantin Kilimnik": 1,
            "Dmitry": 1,
            "Richard U.S.": 1,
            "John Jr. Clinton": 1,
            "Podobnyy": 1,
            "Victor Russian": 1,
            "Poliakova": 1,
            "Elena Personal": 1,
            "Dmitry Peskov": 1,
            "Michael Cohen": 1,
            "Polonskaya": 1,
            "Olga Russian": 1,
            "George Papadopoulos Joseph Mifsud": 1,
            "Vladimir Putin": 1,
            "Pompeo": 1,
            "Michael": 1,
            "State": 1,
            "Porter": 1,
            "Robert": 1,
            "Priebus": 1,
            "Reince": 1,
            "Yevgeniy Head": 1
        },
        37
    ],
    "CARDINAL": [
        {
            "6(e": 1,
            "thousands": 1
        },
        2
    ],
    "GPE": [
        {
            "Spain": 1,
            "Florida": 1,
            "Moscow": 1,
            "United States": 1,
            "Russia": 1,
            "U.S.": 2
        },
        7
    ],
    "DATE": [
        {
            "early 2017": 1,
            "May 2016": 1,
            "July 2016 December 2016": 1,
            "2016": 3,
            "2015": 1,
            "January 2016": 1,
            "Jan. 2017 \u2013 Apr. 2018": 1,
            "Jan. 2017 \u2013 Feb. 2018": 1,
            "Jan. 2017 \u2013 July 2017": 1,
            "Jan. 2011 \u2013 Jan. 2017": 1
        },
        12
    ],
    "NORP": [
        {
            "Russian": 4
        },
        4
    ],
    "WORK_OF_ART": [
        {
            "Mifsud": 1
        },
        1
    ]
}