{
    "ORG": [
        {
            "U.S. Department": 1,
            "Trump Tower Moscow": 2,
            "The Trump Organization": 1,
            "Trump Organization": 6,
            "Trump Moscow": 1,
            "Trump": 2,
            "Trump Organization.290": 1,
            "The Trump Organization Crocus Group": 1,
            "Universe": 1,
            "Crocus Group": 2,
            "Senate Judiciary Committee": 2,
            "115th Cong": 2,
            "supra": 1,
            "Congress": 1,
            "Agalarov": 1,
            "Crocus City Hall Moscow": 1,
            "EES Cross": 1
        },
        27
    ],
    "PERSON": [
        {
            "R. Crim": 1,
            "Donald J. Trump": 3,
            "Michael Cohen": 2,
            "Aras Agalarov": 3,
            "Donald J. Trump Jr.": 1,
            "Emin Agalarov": 1,
            "Irakli": 1,
            "Kaveladze": 2,
            "Robert Goldstone.293": 1,
            "Kaveladze Trump Jr.": 1,
            "Jr": 2,
            "Cohen": 1,
            "\u00b6 7(a": 1,
            "Agalarov": 1,
            "Emin": 1,
            "Trump": 1,
            "KAV_00385": 1,
            "Trump Jr. Kaveladze": 1,
            "E. Agalarov": 1
        },
        26
    ],
    "CARDINAL": [
        {
            "6(e": 1,
            "1": 1,
            "289": 1,
            "151": 1,
            "290": 1,
            "291": 1,
            "292": 1,
            "302": 1,
            "2": 1,
            "4": 1,
            "293": 1
        },
        11
    ],
    "GPE": [
        {
            "United States": 2,
            "Russia": 2,
            "Moscow": 3
        },
        7
    ],
    "DATE": [
        {
            "2013 2016": 1,
            "Between 2013 June 2016": 1,
            "2015": 1,
            "2016": 1,
            "2013-2014": 1,
            "2013": 1,
            "December 2013": 1,
            "Sept. 7, 2017": 2,
            "November 2018": 1,
            "Nov. 29, 2018": 1,
            "13": 1,
            "November 2013": 1
        },
        13
    ],
    "WORK_OF_ART": [
        {
            "Trump Tower Moscow": 1,
            "Cohen Information": 1
        },
        2
    ],
    "NORP": [
        {
            "Russian": 2
        },
        2
    ],
    "FAC": [
        {
            "Trump Tower Moscow": 1
        },
        1
    ]
}