{
    "ORG": [
        {
            "U.S. Department": 1,
            "FBI": 3,
            "Congress": 1,
            "Kislyak": 1,
            "Comey": 5,
            "Christie firing Flynn": 2,
            "Bannon, Priebus, Hicks": 1,
            "National Security": 1,
            "White House": 3,
            "Department Justice": 1,
            "EES Cross": 1
        },
        20
    ],
    "PERSON": [
        {
            "R. Crim": 1,
            "Flynn": 19,
            "Christie": 3,
            "Comey": 6,
            "Flynn Flynn": 1,
            "Priebus": 2,
            "McGahn": 1,
            "Bannon": 1
        },
        34
    ],
    "CARDINAL": [
        {
            "6(e": 1,
            "one": 4,
            "47": 1
        },
        6
    ],
    "GPE": [
        {
            "Russia": 9
        },
        9
    ],
    "TIME": [
        {
            "Just hours": 1
        },
        1
    ]
}