{
    "ORG": [
        {
            "U.S. Department": 1,
            "Congress": 4,
            "U.S.C.": 1,
            "Court": 1,
            "Digital Realty Trust, Inc.": 1,
            "Somers": 1,
            "Supreme Court": 1,
            "American Heritage College Dictionary Online": 1,
            "The Office Legal Counsel": 1,
            "Digital Realty": 1,
            "EES Cross": 1
        },
        14
    ],
    "PERSON": [
        {
            "R. Crim": 1,
            "McKibbins": 1,
            "Loughrin v. United States": 1,
            "Russello v. United States": 1,
            "Loughrin": 1,
            "Shaw": 1
        },
        6
    ],
    "CARDINAL": [
        {
            "6(e": 1,
            "18": 3,
            "656": 1,
            "711": 1,
            "573": 3,
            "358": 1,
            "another\u2019\u2014let": 1,
            "464": 1,
            "138": 1,
            "767": 1,
            "777": 1,
            "137": 1,
            "462": 1,
            "465": 1,
            "two": 1,
            "1": 1,
            "1078": 1,
            "161": 1
        },
        22
    ],
    "LAW": [
        {
            "Section 1512": 2,
            "Section 1512(c)(2": 6,
            "Section 1512(c)(1)\u2014and": 1,
            "Section 1512(c": 2,
            "Black\u2019s Law Dictionary 1101": 1
        },
        12
    ],
    "GPE": [
        {
            "United States": 2,
            "U.S.": 4,
            "Loughrin": 2,
            "S. Ct": 1
        },
        9
    ],
    "DATE": [
        {
            "7th Cir. 2011": 1,
            "2014": 1,
            "16, 23 (1983": 1,
            "2018": 1,
            "2016": 1,
            "Nov. 2, 2018": 1
        },
        6
    ]
}