{
    "ORG": [
        {
            "U.S. Department": 1,
            "Manafort": 15,
            "Ukraine Manafort": 1,
            "Campaign Administration": 1,
            "Office": 3,
            "Trump Campaign": 1,
            "Administration": 1,
            "FBI": 1,
            "EES Cross": 1
        },
        25
    ],
    "PERSON": [
        {
            "R. Crim": 1,
            "Kilimnik": 6,
            "Viktor Yanukovych": 1,
            "Manafort": 2,
            "Donald": 1,
            "Trump": 1,
            "Gates": 1,
            "Donald J. Trump": 1
        },
        14
    ],
    "CARDINAL": [
        {
            "6(e": 1,
            "840": 1,
            "841": 1,
            "842": 1,
            "130": 1
        },
        5
    ],
    "GPE": [
        {
            "Kilimnik United States": 1,
            "New York City": 1,
            "Russia": 4,
            "Ukraine": 3,
            "U.S.": 2,
            "Yanukovych": 1,
            "United States": 1,
            "D.C.": 1,
            "Manafort": 1
        },
        15
    ],
    "DATE": [
        {
            "August 2, 2016": 1,
            "Several months later": 1,
            "August 2: December 2016": 1,
            "January 2017": 1,
            "February 2017": 1,
            "spring 2018": 1,
            "Nov. 20, 2018": 1,
            "16-17": 1
        },
        8
    ],
    "NORP": [
        {
            "Ukrainian": 2
        },
        2
    ],
    "WORK_OF_ART": [
        {
            "Kilimnik": 1
        },
        1
    ],
    "PRODUCT": [
        {
            "Kilimnik": 1
        },
        1
    ],
    "LANGUAGE": [
        {
            "English": 1
        },
        1
    ]
}