{
    "ORG": [
        {
            "U.S. Department": 1,
            "WikiLeaks": 1,
            "Comey": 1,
            "EES Cross": 1
        },
        4
    ],
    "PERSON": [
        {
            "R. Crim": 1,
            "Greer": 1,
            "Comey Flynn": 1,
            "Lewandowski": 1
        },
        4
    ],
    "CARDINAL": [
        {
            "6(e": 1,
            "860": 1,
            "804": 1,
            "591": 1,
            "872": 1,
            "798": 1,
            "2": 1,
            "one": 2,
            "157": 1
        },
        10
    ],
    "GPE": [
        {
            "United States": 3,
            "Willoughby": 1,
            "Binday": 1,
            "Russia": 1
        },
        6
    ],
    "DATE": [
        {
            "Cir": 1,
            "1988": 1,
            "2015": 1,
            "2017": 1,
            "June 9, 2016": 1
        },
        5
    ],
    "LAW": [
        {
            "F.3d 558": 1,
            "F.3d 790": 1
        },
        2
    ],
    "NORP": [
        {
            "Russian": 1,
            "Russians": 1
        },
        2
    ],
    "LANGUAGE": [
        {
            "Russian": 1
        },
        1
    ]
}