{
    "ORG": [
        {
            "U.S. Department": 1,
            "U.S.C.": 1,
            "Department Justice": 1,
            "Counsel United States Department Justice": 1,
            "FBI": 1,
            "House Permanent Select Committee Intelligence": 1,
            "Counsel": 1,
            "EES Cross-Out elb Cross-Out": 1
        },
        8
    ],
    "PERSON": [
        {
            "R. Crim": 1,
            "Robert S. Mueller Ill": 1,
            "James B. Corney": 1,
            "Donald Trump": 1,
            "~'-4ACL": 1
        },
        5
    ],
    "CARDINAL": [
        {
            "6(e": 1,
            "28": 1,
            "5I 5": 1,
            "of2": 1,
            "600.4": 1,
            "600.10": 1
        },
        6
    ],
    "GPE": [
        {
            "eneral": 1,
            "lllil\u2022\u2022l1ington": 1
        },
        2
    ],
    "DATE": [
        {
            "20530": 1,
            "2016": 2,
            "March 20, 2017": 1
        },
        4
    ],
    "LANGUAGE": [
        {
            "RUSSIAN": 1
        },
        1
    ],
    "NORP": [
        {
            "Russian": 2
        },
        2
    ],
    "PRODUCT": [
        {
            "C.F.R. \u00a7 600.4(a": 1
        },
        1
    ],
    "LAW": [
        {
            "Code Federal Regulations applicable Special Counsel": 1
        },
        1
    ]
}