{
    "ORG": [
        {
            "U.S. Department": 1,
            "Comey": 6,
            "White House Press Office": 1,
            "Department Justice": 1,
            "White House": 3,
            "Rosenstein": 6,
            "DOJ": 5,
            "Fox News": 1,
            "conference.463": 1,
            "idea.464 Sessions": 1,
            "White House Counsel\u2019s Office": 1,
            "Spicer": 3,
            "No White House": 1,
            "Christie": 4,
            "Priebus": 1,
            "Donaldson": 1,
            "Dhillon": 1,
            "Washington Post": 1,
            "EES Cross": 1
        },
        40
    ],
    "PERSON": [
        {
            "R. Crim": 1,
            "Chris Christie": 1,
            "Christie": 3,
            "Rod": 2,
            "Rosenstein": 3,
            "Hicks 12/8/17": 1,
            "McCabe 9/26/17": 1,
            "Gauhar": 1,
            "Priebus Rosenstein": 1,
            "Jenna Johnson": 1,
            "Trump": 1
        },
        16
    ],
    "CARDINAL": [
        {
            "6(e": 1,
            "455": 1,
            "11": 2,
            "18": 1,
            "2": 1,
            "456": 1,
            "302": 9,
            "6": 5,
            "457": 1,
            "458": 1,
            "459": 1,
            "461": 1,
            "3": 1,
            "462": 1,
            "4": 2,
            "463": 1,
            "464": 1,
            "465": 1,
            "26": 1,
            "466": 1,
            "70": 1
        },
        35
    ],
    "TIME": [
        {
            "Later evening": 1,
            "That night": 1,
            "late evening": 1,
            "That evening morning": 1
        },
        4
    ],
    "WORK_OF_ART": [
        {
            "decision.459 The President": 1
        },
        1
    ],
    "DATE": [
        {
            "May 9, 2017": 1,
            "14": 1,
            "16-17": 1,
            "May 10, 2017": 1
        },
        4
    ],
    "PRODUCT": [
        {
            "10/16/17 302": 1,
            "Gauhar 5/16/17 Notes": 1,
            "12/12/17 302": 1
        },
        3
    ],
    "LAW": [
        {
            "Gauhar 5/16/17 Notes": 3,
            "Page Memorandum": 1
        },
        4
    ]
}