{
    "ORG": [
        {
            "U.S. Department": 1,
            "FBI": 3,
            "Trump Campaign": 1,
            "Mifsud & Papadopoulos": 1,
            "WikiLeaks": 1,
            "Russia Trump Campaign": 1,
            "lra Cross-Out": 1,
            "EES Cross": 1
        },
        10
    ],
    "PERSON": [
        {
            "R. Crim": 1,
            "Mifsud": 6,
            "Papadopoulos": 12,
            "Hillary Clinton": 1,
            "Clinton": 2,
            "Hillary": 1,
            "e. Russia-Related Communications With The Campaign": 1,
            "Stephen Miller": 1,
            "Putin": 2,
            "Trump": 4,
            "Miller": 1,
            "Corey Lewandowski": 1,
            "Lewandowski Papadopoulos": 1,
            "Lewandowski": 2,
            "Timofeev": 2,
            "Sam Clovis": 1,
            "Paul Manafort": 1,
            "Papadopoulos S. Miller": 2,
            "Papadopoulos Lewandowski": 2,
            "Papadopoulos Clovis": 1
        },
        45
    ],
    "CARDINAL": [
        {
            "6(e": 1,
            "thousands": 1,
            "463": 1,
            "14": 2,
            "464": 1,
            "465": 1,
            "466": 1,
            "467": 1,
            "468": 1,
            "469": 1,
            "470": 1,
            "89": 1
        },
        13
    ],
    "DATE": [
        {
            "meeting).463": 1,
            "May 6, 2016": 1,
            "10 days": 1,
            "April 25, 2016": 1,
            "April 27, 2016": 1,
            "The day": 2,
            "month": 1,
            "spring summer 2016": 1,
            "May 4, 2016": 1,
            "May 21, 2016": 1,
            "July 26, 2016": 1,
            "days later": 1
        },
        13
    ],
    "NORP": [
        {
            "Russian": 4,
            "Russians": 1
        },
        5
    ],
    "GPE": [
        {
            "Moscow": 3,
            "London": 1,
            "Russia": 4,
            "U.S.": 1
        },
        9
    ],
    "TIME": [
        {
            "8:12:44 p.m.": 1,
            "6:55:58 p.m.": 1,
            "7:15:14 p.m.": 1,
            "8:14:49 a.m.": 1,
            "7:15:21 p.m.": 1
        },
        5
    ]
}