{
    "ORG": [
        {
            "U.S. Department": 1,
            "Jr.": 1,
            "EES Cross-Out": 1
        },
        3
    ],
    "PERSON": [
        {
            "R. Crim": 1,
            "d.": 1,
            "Donald Trump": 2,
            "Paul Manafort": 2,
            "Jared Kushner": 2,
            "e.": 1,
            "Agalarov": 2,
            "Natalia Veselnitskaya": 1,
            "Rob Goldstone": 1,
            "g.": 1,
            "Clintons": 2,
            "iii": 1,
            "Vladimir Putin": 2,
            "Hillary Clinton": 2,
            "i.": 1
        },
        22
    ],
    "CARDINAL": [
        {
            "6(e": 1
        },
        1
    ],
    "DATE": [
        {
            "June 9": 4,
            "June 9, 2016": 2,
            "June 3, 2016": 1,
            "June 7, 2016": 2,
            "Monday week": 1
        },
        10
    ],
    "LAW": [
        {
            "Magnitsky Act": 1
        },
        1
    ],
    "FAC": [
        {
            "Trump Tower": 1
        },
        1
    ],
    "NORP": [
        {
            "Russian": 2
        },
        2
    ],
    "GPE": [
        {
            "Russia": 2
        },
        2
    ]
}