{
    "ORG": [
        {
            "U.S. Department": 1,
            "Page": 2,
            "Merrill Lynch\u2019s": 1,
            "Moscow office.517": 1,
            "Gazprom": 2,
            "Global Energy Capital LLC": 1,
            "GEC": 2,
            "Podobnyy Page": 1,
            "Podobnyy": 2,
            "U.S. House Representatives": 1,
            "115th Cong": 1,
            "Grand Jury": 1,
            "Buryakov": 2,
            "EES Cross": 1
        },
        19
    ],
    "PERSON": [
        {
            "R. Crim": 1,
            "Sergey Yatsenko.518": 1,
            "Yatsenko": 1,
            "Alexander Bulatov": 1,
            "Bulatov": 1,
            "Victor Podobnyy": 1,
            "Page.525 Podobnyy": 1,
            "Podobnyy": 1,
            "Carter Page": 1,
            "Buryakov": 2
        },
        11
    ],
    "CARDINAL": [
        {
            "6(e": 1,
            "518": 1,
            "302": 2,
            "10": 2,
            "519": 1,
            "521": 1,
            "524": 1,
            "22": 1,
            "526": 1,
            "527": 1,
            "528": 1,
            "96": 1
        },
        14
    ],
    "DATE": [
        {
            "January 2016": 1,
            "2004 2007": 1,
            "2008": 2,
            "2013": 1,
            "April 8, 2013": 1,
            "40": 1,
            "Nov. 2, 2017": 1,
            "24": 1,
            "32": 1,
            "Jan. 23, 2015": 1
        },
        11
    ],
    "NORP": [
        {
            "Russian": 5
        },
        5
    ],
    "GPE": [
        {
            "Moscow": 1,
            "United States": 2,
            "New York City": 1,
            "S.D.N.Y.": 1
        },
        5
    ],
    "PRODUCT": [
        {
            "markets.519 520": 1,
            "523 524": 1
        },
        2
    ],
    "FAC": [
        {
            "Russian Consulate": 1
        },
        1
    ],
    "MONEY": [
        {
            "him.526": 1
        },
        1
    ],
    "WORK_OF_ART": [
        {
            "Buryakov Complaint": 1
        },
        1
    ]
}