{
    "ORG": [
        {
            "U.S. Department": 1,
            "White House": 1,
            "Sessions": 1,
            "POTUS": 1,
            "American history.609": 1,
            "Lewandowski": 2,
            "EES Cross": 1
        },
        8
    ],
    "PERSON": [
        {
            "R. Crim": 1,
            "Corey Lewandowski.603": 1,
            "Lewandowski": 13,
            "Sessions": 2,
            "Lewandowski Sessions": 1,
            "Kelly": 2
        },
        20
    ],
    "CARDINAL": [
        {
            "6(e": 1,
            "302": 9,
            "2": 4,
            "604": 1,
            "7": 1,
            "605": 1,
            "606": 1,
            "608": 1,
            "3": 3,
            "609": 1,
            "2-3": 1,
            "1": 1,
            "610": 1,
            "91": 1
        },
        27
    ],
    "DATE": [
        {
            "June 19": 1,
            "months": 1,
            "7": 1
        },
        3
    ],
    "GPE": [
        {
            "Russia investigation.605": 1,
            "correctly.608": 1,
            "Constitution United States": 1,
            "Dearborn": 1
        },
        4
    ],
    "NORP": [
        {
            "Russians": 1
        },
        1
    ],
    "WORK_OF_ART": [
        {
            "Daily Diary": 1
        },
        1
    ],
    "FAC": [
        {
            "West Wing": 1
        },
        1
    ],
    "PRODUCT": [
        {
            "Lewandowski 6/19/17 Notes": 1
        },
        1
    ]
}