{
    "ORG": [
        {
            "U.S. Department": 1,
            "U.S.C.": 5,
            "Office": 1,
            "United States Code": 1,
            "United States": 1,
            "2d Cir.": 1,
            "United States v. Fowler": 1,
            "Federal Election Commission": 1,
            "FEC": 4,
            "100.52(d)(1": 1,
            "Citizens Responsibility Ethics": 1,
            "FEC Advisory Opinion": 1,
            "Strub": 1,
            "EES Cross": 1
        },
        21
    ],
    "PERSON": [
        {
            "R. Crim": 1,
            "i. Thing-of-": 1,
            "broad[ly": 1,
            "Nilsen": 1,
            "Matzkin": 1,
            "Jeter": 1,
            "Sheker": 1,
            "Renzi": 1,
            "FEC": 1
        },
        9
    ],
    "CARDINAL": [
        {
            "6(e": 1,
            "52": 4,
            "30121(a)(1)(A": 2,
            "967": 1,
            "539": 1,
            "542": 1,
            "18": 1,
            "601": 1,
            "932": 1,
            "306": 1,
            "310": 1,
            "14": 1,
            "1020": 1,
            "775": 1,
            "680": 1,
            "618": 1,
            "609": 1,
            "769": 1,
            "744": 1,
            "11": 2,
            "475": 1,
            "338": 1,
            "186": 1
        },
        28
    ],
    "DATE": [
        {
            "\u00a7": 2,
            "1992": 1,
            "71": 1,
            "1979": 1,
            "1991": 1,
            "1994": 1,
            "1985": 1,
            "2014": 1,
            "2007": 1,
            "1990": 1
        },
        11
    ],
    "GPE": [
        {
            "United States": 5,
            "Washington": 1
        },
        6
    ],
    "LAW": [
        {
            "F.3d 1014": 1,
            "F.3d 731": 1,
            "F.3d 337": 1
        },
        3
    ],
    "NORP": [
        {
            "Canadian": 1
        },
        1
    ]
}