{
    "ORG": [
        {
            "U.S. Department": 1,
            "Trump Campaign": 1,
            "Trump": 2,
            "Hicks": 5,
            "Section IV.A.4": 1,
            "supra": 1,
            "Kislyak": 1,
            "Transition Team": 1,
            "National Security": 1,
            "Congressional Committees": 1,
            "Flynn": 1,
            "UPI": 1,
            "EES Cross": 1
        },
        18
    ],
    "PERSON": [
        {
            "R. Crim": 1,
            "Hope Hicks": 1,
            "Putin": 6,
            "Hicks": 3,
            "Sergey Kuznetsov": 1,
            "Hicks Gmail": 1,
            "Kuznetsov": 1,
            "Trump": 2,
            "look[ed": 1,
            "Kushner": 5,
            "Dimitri Simes CNI": 1,
            "Simes": 1,
            "officials.974": 1,
            "Trump Putin": 1,
            "Michael Flynn.975": 1,
            "Kuznetsov Hicks": 2,
            "Hicks Kushner": 1,
            "Jared C. Kushner": 1,
            "Kushner Simes": 1,
            "Jared Kushner": 1,
            "Kushner Hicks": 1,
            "Doug G. Ware": 1
        },
        35
    ],
    "CARDINAL": [
        {
            "6(e": 1,
            "964": 1,
            "302": 5,
            "3": 4,
            "965": 1,
            "966": 1,
            "967": 1,
            "968": 1,
            "969": 1,
            "970": 1,
            "971": 1,
            "972": 1,
            "973": 1,
            "974": 1,
            "975": 1,
            "8-10": 1,
            "145": 1
        },
        24
    ],
    "NORP": [
        {
            "Russian": 5,
            "Russian-American": 1
        },
        6
    ],
    "TIME": [
        {
            "approximately 3 a.m. election night": 1,
            "5:27 a.m.": 2,
            "10:26 a.m.": 1,
            "10:28 a.m.": 1,
            "11:05:44 a.m.": 1
        },
        6
    ],
    "GPE": [
        {
            "DC": 1,
            "Russian Embassy United States": 1,
            "Russia": 2,
            "Putin Talk": 1,
            "Syria": 1
        },
        6
    ],
    "DATE": [
        {
            "November 9, 2016": 1,
            "April": 1,
            "Five days later": 1,
            "Nov. 9, 2016": 1,
            "4": 1,
            "Jul. 24, 2017": 1,
            "Nov. 14, 2016": 1
        },
        7
    ],
    "LANGUAGE": [
        {
            "English": 1
        },
        1
    ]
}