{
    "ORG": [
        {
            "U.S. Department": 1,
            "IRA": 1,
            "Facebook Advertisement": 1,
            "ID Pers & ID 100011698576461": 1,
            "Facebook": 1,
            "Craigslist": 1,
            "Twitter DM": 1,
            "EES Cross": 1
        },
        8
    ],
    "PERSON": [
        {
            "R. Crim": 1,
            "Taylor Brooks": 1,
            "Matt Skiber": 2,
            "Taylor Brooks) & ID": 1
        },
        5
    ],
    "CARDINAL": [
        {
            "6(e": 1,
            "91": 1,
            "6045078289928": 1,
            "90": 1,
            "92": 1,
            "8/18-19/16": 1,
            "11/11-27/16": 1,
            "94": 1,
            "95": 1
        },
        9
    ],
    "WORK_OF_ART": [
        {
            "Black Matters US.\u201d89": 1,
            "Black Fist": 2
        },
        3
    ],
    "DATE": [
        {
            "February 2017": 1,
            "100011698576461": 1
        },
        2
    ],
    "NORP": [
        {
            "African-Americans": 1
        },
        1
    ],
    "GPE": [
        {
            "New York": 1,
            "New York City": 1,
            "Santa Claus": 1,
            "U.S.": 1
        },
        4
    ],
    "PRODUCT": [
        {
            "Facebook Advertisement ID 6055238604687": 1,
            "Facebook Message": 1
        },
        2
    ],
    "LAW": [
        {
            "ID 100009922908461": 1
        },
        1
    ]
}