{
    "ORG": [
        {
            "U.S. Department": 1,
            "Comey": 14,
            "FBI": 5,
            "DNC": 1,
            "White House Counsel\u2019s Office": 1,
            "White House": 1,
            "FBI Congress": 1,
            "Senate Judiciary Committee": 1,
            "Sessions": 1,
            "EES Cross": 1
        },
        27
    ],
    "PERSON": [
        {
            "R. Crim": 1,
            "Clinton": 1,
            "Flynn": 6,
            "Dana Boente": 1,
            "Mike Flynn": 1,
            "McFarland": 1,
            "Comey Comey": 1,
            "Stephen Miller": 2,
            "Trump": 1,
            "Rosenstein": 1,
            "Comey": 1
        },
        17
    ],
    "CARDINAL": [
        {
            "6(e": 1,
            "75": 1
        },
        2
    ],
    "GPE": [
        {
            "Russia": 5,
            "Bedminster": 1
        },
        6
    ],
    "DATE": [
        {
            "March 20, 2017": 1,
            "February 14, 2017": 1,
            "March 5, 2017": 1,
            "The day": 1,
            "March 31, 2017": 1,
            "late March early April": 1,
            "week": 1,
            "May 3, 2017": 1,
            "May 3": 1,
            "Two days later": 1
        },
        10
    ]
}