{
    "PERSON": [
        {
            "Papadopoulos": 8,
            "R. Crim": 1,
            "Clovis": 2,
            "Sessions": 2,
            "Trump": 1,
            "Clovis Papadopoulos et al.": 1
        },
        15
    ],
    "GPE": [
        {
            "Clovis": 1,
            "Russia": 3,
            "Ukraine": 1,
            "France": 1,
            "Germany": 1,
            "Great Britain": 1,
            "Washington": 2
        },
        10
    ],
    "ORG": [
        {
            "U.S. Department": 1,
            "NATO": 1,
            "D.C.432": 1,
            "Trump International": 1,
            "Trump": 2,
            "Sessions": 1,
            "EES Cross": 1
        },
        8
    ],
    "CARDINAL": [
        {
            "6(e": 1,
            "430": 2,
            "two": 1,
            "431": 1,
            "432": 1,
            "302": 2,
            "3": 1,
            "433": 1,
            "1/17/18": 1,
            "434": 1,
            "85": 1
        },
        13
    ],
    "NORP": [
        {
            "Russian": 1,
            "Russians": 1
        },
        2
    ],
    "TIME": [
        {
            "later today": 1,
            "8:55:04 a.m.": 1
        },
        2
    ],
    "DATE": [
        {
            "March 31": 1,
            "approximately week later, March 31, 2016": 1,
            "302, 4": 1,
            "16-17": 1,
            "302": 1,
            "4": 1
        },
        6
    ]
}