{
    "ORG": [
        {
            "U.S. Department": 1,
            "Trump": 2,
            "Universe": 1,
            "Trump Moscow": 2,
            "publicist.669": 1,
            "Goldstone": 4,
            "Shugart": 2,
            "Grand Jury Grand Jury Grand Jury Grand": 1,
            "Grand Jury": 1,
            "EES Cross": 1
        },
        16
    ],
    "PERSON": [
        {
            "R. Crim": 1,
            "Aras Agalarov": 1,
            "note.667 Aras Agalarov": 1,
            "Trump": 2,
            "Goldstone": 6,
            "Emin Agalarov": 4,
            "Emin": 1,
            "Trumps Agalarovs": 1,
            "Putin": 1,
            "Trumps": 1,
            "Hillary Clinton": 1,
            "Kaveladze": 2,
            "Graff Goldstone": 3,
            "Goldstone Trump Jr. et al.": 1,
            "Robert Goldstone": 1,
            "Beniaminov 1/6/18": 2,
            "Goldstone Trump Jr.": 1,
            "Goldstone Graff": 4,
            "Graff Shugart": 1,
            "Graff L. Kelly": 1
        },
        36
    ],
    "CARDINAL": [
        {
            "6(e": 1,
            "672": 2,
            "665": 1,
            "302": 10,
            "3": 3,
            "2-3": 1,
            "666": 1,
            "10": 1,
            "5": 1,
            "667": 1,
            "668": 1,
            "669": 1,
            "670": 1,
            "1": 2,
            "671": 1,
            "2": 1,
            "6": 1,
            "673": 1,
            "674": 1
        },
        32
    ],
    "DATE": [
        {
            "2013": 1,
            "2013-2014": 1,
            "April 2016": 1,
            "June 3, 2016": 1,
            "2012": 1,
            "6": 1
        },
        6
    ],
    "GPE": [
        {
            "Moscow": 1
        },
        1
    ],
    "NORP": [
        {
            "Russian": 2
        },
        2
    ],
    "TIME": [
        {
            "674 Grand JuryGrand Jury": 1,
            "302": 1
        },
        2
    ],
    "PRODUCT": [
        {
            "RG000033-34": 1,
            "Email": 1,
            "Shugart": 2
        },
        4
    ],
    "MONEY": [
        {
            "MUO00004289": 1
        },
        1
    ]
}