{
    "ORG": [
        {
            "U.S. Department": 1,
            "Trump Campaign": 1,
            "Trump": 1,
            "Sessions": 1,
            "Office": 1,
            "Dearborn Mashburn Campaign": 1,
            "Gordon": 1,
            "Hoff": 1,
            "EES Cross": 1
        },
        9
    ],
    "PERSON": [
        {
            "R. Crim": 1,
            "Miller": 1,
            "Trump": 2,
            "Gordon": 15,
            "views.802": 1,
            "Denman": 4,
            "Gordon Matt Miller": 1,
            "Rick Dearborn": 1,
            "Mashburn": 3,
            "Gordon Trump": 1,
            "Denman 12/4/17": 1,
            "J.D. Gordon Grand Jury": 1,
            "Sessions": 1,
            "Donald J. Trump": 1
        },
        34
    ],
    "CARDINAL": [
        {
            "6(e": 1,
            "801": 1,
            "302": 13,
            "3": 2,
            "302 3": 1,
            "803": 1,
            "2": 4,
            "804": 1,
            "805": 1,
            "2-3": 1,
            "7": 2,
            "807": 1,
            "808": 1,
            "809": 1,
            "6": 1,
            "11": 2,
            "810": 1,
            "811": 1,
            "4": 1,
            "126": 1
        },
        38
    ],
    "GPE": [
        {
            "Ukraine": 1,
            "New York": 1,
            "Washington": 1,
            "Dearborn": 2
        },
        5
    ],
    "TIME": [
        {
            "afternoon": 1
        },
        1
    ],
    "DATE": [
        {
            "Nov. 20, 2018": 1,
            "17": 1
        },
        2
    ]
}