{
    "ORG": [
        {
            "U.S. Department": 1,
            "Department Justice": 1,
            "Counsel": 1,
            "Congress": 1,
            "Special Counsel": 1,
            "White House Counsel\u2019s Office": 1,
            "Sessions": 1,
            "Oval Office": 1,
            "EES Cross": 1
        },
        9
    ],
    "PERSON": [
        {
            "R. Crim": 1,
            "Sanders": 1,
            "Corey Lewandowski": 2,
            "Sessions": 3,
            "Lewandowski": 2
        },
        9
    ],
    "CARDINAL": [
        {
            "6(e": 1,
            "one": 3,
            "1": 1,
            "90": 1
        },
        6
    ],
    "DATE": [
        {
            "mid-June": 1,
            "June 13, 2017": 1,
            "Two days": 1,
            "June 19, 2017": 2,
            "One month later": 1
        },
        6
    ],
    "TIME": [
        {
            "night": 1,
            "Hours later": 1
        },
        2
    ],
    "FAC": [
        {
            "Saturday Camp David": 1
        },
        1
    ],
    "EVENT": [
        {
            "Volume II": 1
        },
        1
    ],
    "GPE": [
        {
            "Russia": 3
        },
        3
    ]
}