{
    "ORG": [
        {
            "U.S. Department": 1,
            "Manafort": 2,
            "United States": 1,
            "Trump Campaign Trump Administration": 1,
            "Executive Branch": 1,
            "U.S. Department State": 1,
            "Trump Campaign Transition Team": 1,
            "Trump Campaign": 1,
            "Trump": 1,
            "Administration": 1,
            "Manafort Ward & Fabrizio": 2,
            "EES Cross": 1
        },
        14
    ],
    "PERSON": [
        {
            "R. Crim": 1,
            "questions.960": 1,
            "Trump": 2,
            "Donbas Yanukovych": 1,
            "Yanukovych": 1,
            "Donbas": 1,
            "Kilimnik": 1,
            "Kislyak": 1,
            "Opp": 1,
            "Paul J. Manafort": 1,
            "Fabrizio Manafort": 1,
            "Fabrizio Ward": 1
        },
        13
    ],
    "CARDINAL": [
        {
            "6(e": 1,
            "three": 1,
            "1": 1,
            "959": 1,
            "2": 1,
            "48": 1,
            "318": 1,
            "960": 1,
            "961": 1,
            "962": 1,
            "963": 1,
            "144": 1
        },
        12
    ],
    "GPE": [
        {
            "Ukraine": 4,
            "Autonomous Republic": 1,
            "Yanukovych": 1,
            "Manafort": 1,
            "U.S.": 1,
            "Russia": 1,
            "Russian Embassy": 1,
            "United States": 2
        },
        12
    ],
    "DATE": [
        {
            "early 2018": 1,
            "2019": 1,
            "November 8, 2016": 1,
            "June 8, 2018": 1
        },
        4
    ],
    "WORK_OF_ART": [
        {
            "Kilimnik": 1
        },
        1
    ],
    "LAW": [
        {
            "Kilimnik": 1
        },
        1
    ],
    "NORP": [
        {
            "Russian": 6
        },
        6
    ],
    "TIME": [
        {
            "7:16:49 a.m.": 1
        },
        1
    ]
}