{
    "ORG": [
        {
            "U.S. Department": 1,
            "Manafort": 15,
            "Flynn": 1,
            "HOM": 1,
            "Special Counsel": 2,
            "EES Cross": 1
        },
        21
    ],
    "PERSON": [
        {
            "R. Crim": 1,
            "Paul Manafort": 1,
            "Manafort": 1,
            "Flynn": 5
        },
        8
    ],
    "CARDINAL": [
        {
            "6(e": 1,
            "One": 1,
            "132": 1
        },
        3
    ],
    "GPE": [
        {
            "Manafort": 1,
            "Washington": 1
        },
        2
    ]
}