{
    "ORG": [
        {
            "U.S. Department": 1,
            "EES Cross": 1
        },
        2
    ],
    "PERSON": [
        {
            "R. Crim": 1
        },
        1
    ],
    "CARDINAL": [
        {
            "6(e": 1,
            "901": 1,
            "907": 2,
            "903": 1,
            "908": 1,
            "130": 1
        },
        7
    ],
    "PRODUCT": [
        {
            "904": 1
        },
        1
    ]
}