{
    "ORG": [
        {
            "U.S. Department": 1,
            "Yahoo": 4,
            "Page": 1,
            "Trump Administration.591": 1,
            "Transition Team": 1,
            "Trump": 3,
            "Trump Advisor": 1,
            "Washington Post": 1,
            "Kremlin": 2,
            "9/25/16 Email": 1,
            "Hicks Conway & Bannon": 1,
            "EES Cross": 1
        },
        18
    ],
    "PERSON": [
        {
            "R. Crim": 1,
            "Page": 2,
            "Sergey Kislyak": 1,
            "infra.584": 1,
            "views.585": 1,
            "Kislyak": 1,
            "Clinton": 1,
            "Trump": 2,
            "Steven Mufson": 1,
            "Tom Hamburger": 1,
            "Michael Isikoff": 2,
            "J. Miller Bannon": 1,
            "S. Miller": 1
        },
        16
    ],
    "CARDINAL": [
        {
            "6(e": 1,
            "583": 1,
            "302": 5,
            "3": 2,
            "584": 1,
            "585": 1,
            "586": 1,
            "587": 1,
            "588": 1,
            "589": 1,
            "590": 1,
            "2": 1,
            "591": 1,
            "102": 1
        },
        19
    ],
    "WORK_OF_ART": [
        {
            "Later Campaign Work Removal Campaign": 1,
            "Transition Online Form": 1
        },
        2
    ],
    "DATE": [
        {
            "July 2016": 1,
            "September 23, 2016": 1,
            "September 24, 2016": 1,
            "November 14, 2016": 1,
            "4": 2,
            "Aug. 5, 2016": 1,
            "Sept. 23, 2016": 2,
            "March": 1
        },
        10
    ],
    "GPE": [
        {
            "Russia": 2,
            "Moscow": 2,
            "U.S.": 4
        },
        8
    ],
    "NORP": [
        {
            "Republican": 1,
            "Russian": 2
        },
        3
    ],
    "EVENT": [
        {
            "Convention": 1
        },
        1
    ],
    "PRODUCT": [
        {
            "Comments": 1
        },
        1
    ]
}