{
    "ORG": [
        {
            "U.S. Department": 1,
            "LCILP": 2,
            "work.401": 1,
            "Trump": 2,
            "Glassner": 1,
            "Trump Campaign\u2019s": 1,
            "Trump Campaign": 1,
            "Campaign": 1,
            "notice.406": 1,
            "Google": 1,
            "Hudson Institute": 1,
            "LinkedIn Message": 1,
            "Clovis": 1,
            "Clovis 10/3/17": 1,
            "Email, Lutes Clovis & Papadopoulos": 1,
            "EES Cross": 1
        },
        18
    ],
    "PERSON": [
        {
            "R. Crim": 1,
            "LCILP hiring.400": 1,
            "Papadopoulos": 14,
            "Corey Lewandowski LinkedIn": 1,
            "Michael Glassner": 1,
            "Glassner": 1,
            "Joy Lutes": 1,
            "Papadopoulos Sam Clovis": 1,
            "ranks.405": 1,
            "Clovis": 1,
            "spoke.408 Papadopoulos": 1,
            "offer.410 b.": 1,
            "Papadopoulos Idris": 1,
            "Idris Papadopoulos": 2,
            "Papadopoulos Lewandowski": 1,
            "Papadopoulos Glassner": 2,
            "Lutes Papadopoulos": 1,
            "Papadopoulos Clovis": 1,
            "George Papadopoulos": 1
        },
        34
    ],
    "CARDINAL": [
        {
            "6(e": 1,
            "400": 1,
            "401": 1,
            "402": 1,
            "403": 1,
            "404": 1,
            "405": 1,
            "302": 2,
            "2": 3,
            "4": 2,
            "406": 1,
            "407": 1,
            "408": 1,
            "409": 1,
            "410": 1,
            "82": 1
        },
        20
    ],
    "DATE": [
        {
            "early February": 1,
            "March 2, 2016": 1,
            "March 2": 1,
            "March 3, 2016": 1,
            "March 6, 2016": 1,
            "Oct. 5, 2017": 1,
            "19": 1,
            "302": 1
        },
        8
    ],
    "GPE": [
        {
            "London": 1,
            "Clovis": 3,
            "Lutes": 1,
            "Russia": 3,
            "United States": 1
        },
        9
    ],
    "PRODUCT": [
        {
            "advisor.404": 1
        },
        1
    ],
    "TIME": [
        {
            "6:11:25 p.m.": 1,
            "5:34:15 p.m.": 1,
            "1:28 p.m.": 1,
            "2:10:36 p.m.": 1,
            "11:17:23 a.m.": 1,
            "10:08:15 p.m.": 1,
            "6:05:47 p.m.": 1,
            "4:24:21 p.m.": 1
        },
        8
    ]
}