{
    "ORG": [
        {
            "U.S. Department": 1,
            "Donaldson": 5,
            "White House": 1,
            "McGahn": 1,
            "Priebus": 2,
            "know.596": 1,
            "position.597": 1,
            "Congress": 1,
            "Comey": 1,
            "Christie": 3,
            "FBI": 1,
            "Christie twice time": 1,
            "EES Cross-Out": 1
        },
        20
    ],
    "PERSON": [
        {
            "R. Crim": 1,
            "Donaldson": 1,
            "McGahn": 2,
            "Priebus Bannon": 2,
            "resign.594": 1,
            "Chris Christie": 2,
            "Christie": 2,
            "Don McGahn": 1,
            "Priebus": 2,
            "Bannon": 1,
            "Christopher Wray": 1
        },
        16
    ],
    "CARDINAL": [
        {
            "6(e": 1,
            "592": 1,
            "302": 15,
            "3": 5,
            "4": 2,
            "5": 2,
            "593": 1,
            "594": 1,
            "10": 2,
            "4/3/18": 1,
            "6": 1,
            "595": 1,
            "596": 1,
            "7": 4,
            "597": 1,
            "598": 1,
            "599": 1,
            "600": 1,
            "87": 1
        },
        43
    ],
    "GPE": [
        {
            "Russia": 1
        },
        1
    ],
    "DATE": [
        {
            "Monday": 1,
            "7": 1,
            "June 7, 2017": 1,
            "July 4, 2017, July 14, 2017": 1
        },
        4
    ],
    "NORP": [
        {
            "Republicans": 1
        },
        1
    ],
    "TIME": [
        {
            "302": 2
        },
        2
    ],
    "MONEY": [
        {
            "302": 1
        },
        1
    ]
}