{
    "ORG": [
        {
            "U.S. Department": 1,
            "Court": 2,
            "Congress": 2,
            "U.S.C.": 3,
            "Arthur Andersen\u2019s": 1,
            "EES Cross": 1
        },
        10
    ],
    "PERSON": [
        {
            "R. Crim": 1,
            "Abramski v. United States": 1,
            "Yates": 1,
            "Aguilar": 1,
            "Sampson": 1,
            "Rainey": 1,
            "Poindexter": 1,
            "Brenson": 1,
            "Morrison": 1,
            "Edwards": 1
        },
        10
    ],
    "CARDINAL": [
        {
            "6(e": 1,
            "531": 1,
            "573": 1,
            "188": 1,
            "135": 1,
            "1074": 1,
            "18": 3,
            "5": 1,
            "515": 1,
            "898": 1,
            "757": 1,
            "241": 1,
            "379": 1,
            "104": 1,
            "98": 1,
            "629": 1,
            "869": 1,
            "1084": 1,
            "1085": 1,
            "167": 1
        },
        22
    ],
    "LAW": [
        {
            "Section 1512(c)(2": 4,
            "Section 1503": 1,
            "Section 1505": 4,
            "F.3d 234": 1,
            "F.3d 501-502": 1
        },
        11
    ],
    "GPE": [
        {
            "Cleveland": 1,
            "United States": 4,
            "U.S.": 3,
            "S. Ct": 1
        },
        9
    ],
    "DATE": [
        {
            "12, 25 (2000": 1,
            "2014": 2,
            "1088": 1,
            "2015": 1,
            "1519": 1,
            "Cir": 1,
            "1996": 1
        },
        8
    ],
    "WORK_OF_ART": [
        {
            "S]ection 1505": 1
        },
        1
    ],
    "PRODUCT": [
        {
            "F.3d 1280-1281": 1
        },
        1
    ]
}