{
    "ORG": [
        {
            "U.S. Department": 1,
            "WordPress": 1,
            "DNC": 3,
            "DCLeaks": 2,
            "U.S. Congress": 1,
            "DCLeaks Guccifer 2.0": 1,
            "Netyksho": 1,
            "EES Cross": 1
        },
        11
    ],
    "PERSON": [
        {
            "R. Crim": 1,
            "GRU Guccifer 2.0": 2,
            "Guccifer": 4,
            "Trump": 1,
            "Guccifer 2.0": 5,
            "Hillary Clinton": 1,
            "Clinton": 1,
            "Netyksho": 1
        },
        16
    ],
    "CARDINAL": [
        {
            "6(e": 1,
            "thousands": 1,
            "26165": 1,
            "148": 1,
            "149": 1,
            "150": 1,
            "151": 1,
            "152": 1,
            "153": 1,
            "43": 1
        },
        10
    ],
    "DATE": [
        {
            "June 15, 2016": 2,
            "June 15, 2016 October 18": 1,
            "2016": 1,
            "late June 2016": 1,
            "June 27, 2016": 1,
            "March": 1,
            "August 2016": 1,
            "August 15, 2016": 2,
            "August 22, 2016": 2,
            "June 20, 2016": 1,
            "June 21, 2016": 1,
            "July 6, 2016": 1,
            "July 14, 2016": 1,
            "August 12, 2016": 1,
            "August 21, 2016": 1,
            "August 31, 2016": 1,
            "September 15, 2016": 1,
            "September 23, 2016": 1,
            "October 4, 2016": 1,
            "October 18, 2016": 1
        },
        23
    ],
    "GPE": [
        {
            "Florida": 3,
            "Pennsylvania": 1,
            "U.S.": 3
        },
        7
    ],
    "WORK_OF_ART": [
        {
            "The Smoking Gun": 1,
            "Black Lives Matter movement.153": 1,
            "Guccifer 2.0": 1
        },
        3
    ],
    "QUANTITY": [
        {
            "approximately 2.5 gigabytes": 1
        },
        1
    ],
    "MONEY": [
        {
            "mailto:guccifer20@aol.fr mailto:guccifer20@aol.fr mailto:guccifer20@aol.fr": 1
        },
        1
    ]
}