{
    "PERSON": [
        {
            "Donald J. Trump": 1,
            "Clinton": 3,
            "R. Crim": 1,
            "Trump": 3,
            "State": 1,
            "Trump Putin": 1,
            "Michael Cohen": 1,
            "Dmitry Peskov": 1,
            "Cohen": 1,
            "George Papadopoulos": 1,
            "Joseph Mifsud": 1,
            "Mifsud": 1,
            "Papadopoulos": 1,
            "Hillary Clinton": 1
        },
        18
    ],
    "WORK_OF_ART": [
        {
            "Trump Campaign": 1,
            "Campaign": 1
        },
        2
    ],
    "ORG": [
        {
            "WikiLeaks": 4,
            "U.S. Department": 1,
            "Trump Campaign": 3,
            "Clinton": 1,
            "GRU": 1,
            "Office": 1,
            "Trump": 1,
            "Trump Organization": 2,
            "Trump Tower Moscow": 1,
            "The Trump Organization": 1,
            "EES Cross": 1
        },
        17
    ],
    "DATE": [
        {
            "June 2016": 2,
            "July 2016": 1,
            "October 7, 2016": 1,
            "2015": 1,
            "November 2015": 1,
            "January 2016": 1,
            "Spring 2016": 1,
            "April 2016": 1
        },
        9
    ],
    "CARDINAL": [
        {
            "6(e": 1,
            "thousands 5": 1
        },
        2
    ],
    "GPE": [
        {
            "Russia": 6,
            "U.S.": 1,
            "London": 2,
            "Moscow": 1
        },
        10
    ],
    "TIME": [
        {
            "hour": 1
        },
        1
    ],
    "PRODUCT": [
        {
            "Trump": 1
        },
        1
    ],
    "NORP": [
        {
            "Russian": 9
        },
        9
    ],
    "LANGUAGE": [
        {
            "RUSSIAN": 1
        },
        1
    ],
    "FAC": [
        {
            "Trump Tower Moscow": 1
        },
        1
    ]
}