{
    "ORG": [
        {
            "U.S. Department": 1,
            "Trump": 1,
            "Trump Organization": 6,
            "commitments.326": 1,
            "Sater": 2,
            "Trump Moscow": 2,
            "Sater Cohen & Davis": 1,
            "EES Cross-Out": 1
        },
        15
    ],
    "PERSON": [
        {
            "R. Crim": 1,
            "groundbreaking.325": 1,
            "Cohen": 2,
            "Trump": 1,
            "Michael": 1,
            "Putin": 2,
            "Donald": 3,
            "Hillary": 1,
            "Donald Vladimir": 1,
            "Cohen Rozov et al.": 1,
            "Sater Cohen": 1
        },
        15
    ],
    "CARDINAL": [
        {
            "6(e": 1,
            "250": 1,
            "approximately 15": 1,
            "150": 1,
            "324": 2,
            "320": 1,
            "321": 1,
            "2": 1,
            "322": 1,
            "323": 1,
            "325": 1,
            "326": 1,
            "302": 1,
            "3": 1,
            "327": 1,
            "71": 1
        },
        17
    ],
    "PERCENT": [
        {
            "1%": 2,
            "5%": 2,
            "3%": 3,
            "4%": 2,
            "20%": 1,
            "2%": 1
        },
        11
    ],
    "NORP": [
        {
            "sales,322": 1,
            "Putins": 1,
            "republican": 1
        },
        3
    ],
    "DATE": [
        {
            "years": 1,
            "November 3, 2015": 1,
            "Later day": 1,
            "Schedule 2": 2,
            "Schedule 1": 1
        },
        6
    ],
    "MONEY": [
        {
            "$4 million": 1,
            "$100 million": 1,
            "$100 million $250 million": 1,
            "$250 million $500 million": 1,
            "$500 million $1 billion": 1,
            "$1 billion": 1
        },
        6
    ],
    "GPE": [
        {
            "USA": 1
        },
        1
    ],
    "WORK_OF_ART": [
        {
            "LOI": 1,
            "10/13/15 Email": 1
        },
        2
    ],
    "TIME": [
        {
            "12:14 p.m.": 1
        },
        1
    ]
}