{
    "ORG": [
        {
            "U.S. Department": 1,
            "b. Nexus": 1,
            "Comey": 6,
            "Flynn": 1,
            "White House": 1,
            "Coats Rogers": 1,
            "FBI": 3,
            "Section II.D": 1,
            "supra": 1,
            "Washington Post": 1,
            "CNN": 2,
            "EES Cross": 1
        },
        20
    ],
    "PERSON": [
        {
            "R. Crim": 1,
            "Flynn": 2,
            "Flynn investigation.602": 1,
            "Sessions": 1,
            "Evan Perez et al.": 1,
            "Matt Ford": 1,
            "Mueller": 1,
            "Michael Flynn": 1
        },
        9
    ],
    "CARDINAL": [
        {
            "6(e": 1,
            "602": 1,
            "89": 1
        },
        3
    ],
    "GPE": [
        {
            "Christie": 1,
            "Russia": 3
        },
        4
    ],
    "DATE": [
        {
            "June 17, 2017": 1,
            "May 23, 2017": 1,
            "early June": 1,
            "June 9, 2017": 1,
            "June 14, 2017": 2,
            "June 16, 2017": 1,
            "May 17, 2017": 1,
            "May 9, 2017": 1,
            "June 2, 2017": 1
        },
        10
    ],
    "NORP": [
        {
            "Russian": 1
        },
        1
    ],
    "WORK_OF_ART": [
        {
            "Volume II": 1,
            "Grand Jury": 1
        },
        2
    ],
    "LOC": [
        {
            "Atlantic": 1
        },
        1
    ]
}