{
    "ORG": [
        {
            "U.S. Department": 1,
            "A. Structure Internet Research Agency": 1,
            "U.S. Operations Through IRA-Controlled Social Media Accounts": 1,
            "U.S. Operations Through Facebook": 1,
            "Twitter": 1,
            "GRU Units": 1,
            "DNC": 3,
            "WikiLeaks": 1,
            "EES Cross": 1
        },
        11
    ],
    "PERSON": [
        {
            "R. Crim": 1,
            "A. GRU Hacking": 1,
            "Clinton": 2,
            "Guccifer": 1,
            "Guccifer 2.0": 1
        },
        6
    ],
    "CARDINAL": [
        {
            "6(e": 1,
            "1": 1,
            "4": 1,
            "11": 1,
            "14": 1,
            "15": 1,
            "16": 1,
            "19 1": 1,
            "19 2": 1,
            "22 3": 1,
            "26": 2,
            "29 6": 1,
            "7": 1,
            "33": 2,
            "35": 1,
            "36": 1,
            "36 2": 1,
            "38": 3,
            "40": 1,
            "41 1": 1,
            "41 2": 1,
            "42 3": 1,
            "44": 2,
            "45": 1
        },
        29
    ],
    "LANGUAGE": [
        {
            "RUSSIAN": 1
        },
        1
    ],
    "GPE": [
        {
            "U.S.": 4
        },
        4
    ],
    "DATE": [
        {
            "2014": 1,
            "28 5": 1,
            "36 1": 1
        },
        3
    ],
    "QUANTITY": [
        {
            "24 4": 1
        },
        1
    ],
    "EVENT": [
        {
            "RUSSIAN HACKING AND DUMPING OPERATIONS": 1
        },
        1
    ]
}