{
    "ORG": [
        {
            "U.S. Department": 1,
            "FBI": 5,
            "Comey": 2,
            "Sessions": 1,
            "AG": 1,
            "Senate Judiciary Committee": 4,
            "115th Cong": 4,
            "Hunt-000021": 1,
            "Hunt-000022": 1,
            "EES Cross": 1
        },
        21
    ],
    "PERSON": [
        {
            "R. Crim": 1,
            "Trump": 1,
            "Comey": 2,
            "Clinton": 1,
            "Jody Hunt.391": 1,
            "investigation.392": 1,
            "Hunt": 5,
            "Jeff": 1,
            "Kennedy": 1,
            "Obama": 1,
            "leaders.395 Sessions": 1,
            "decision.396 Hunt": 1,
            "Sessions": 2,
            "Blumenthal": 1,
            "James B. Comey": 3,
            "Feinstein": 1
        },
        24
    ],
    "GPE": [
        {
            "United States": 1
        },
        1
    ],
    "DATE": [
        {
            "11 days": 1,
            "May 3, 2017": 4,
            "87-88": 1,
            "15": 1,
            "17": 1,
            "92": 1,
            "8": 4
        },
        13
    ],
    "TIME": [
        {
            "afternoon": 1
        },
        1
    ],
    "CARDINAL": [
        {
            "387": 1,
            "388": 1,
            "389": 1,
            "390": 1,
            "391": 1,
            "1/17/18": 4,
            "302": 9,
            "8": 3,
            "392": 1,
            "6": 1,
            "393": 1,
            "394": 1,
            "2": 1,
            "395": 1,
            "22": 1,
            "396": 1,
            "63": 1
        },
        30
    ],
    "LAW": [
        {
            "Hunt 5/3/17 Notes": 3
        },
        3
    ],
    "NORP": [
        {
            "Chinese": 1
        },
        1
    ]
}