{
    "ORG": [
        {
            "U.S. Department": 1,
            "FBI": 2,
            "Trump Campaign": 1,
            "Central Intelligence Agency": 1,
            "CIA": 1,
            "National Security Agency": 1,
            "NSA": 1,
            "Comey": 13,
            "White House": 1,
            "Comey Russia": 1,
            "Special Counsel": 1,
            "Sessions": 1,
            "Department Justice": 1,
            "Special Counsel\u2019s": 1,
            "EES Cross": 1
        },
        28
    ],
    "PERSON": [
        {
            "R. Crim": 1,
            "Comey": 3,
            "Hillary Clinton": 1,
            "Night Massacre": 1
        },
        6
    ],
    "CARDINAL": [
        {
            "6(e": 1,
            "4": 1
        },
        2
    ],
    "NORP": [
        {
            "Russian": 4
        },
        4
    ],
    "DATE": [
        {
            "2016": 1,
            "following days": 1,
            "May 3, 2017": 1,
            "days": 1,
            "day": 2,
            "May 17, 2017": 1,
            "June 14, 2017": 1,
            "June 17, 2017": 1,
            "Saturday": 1
        },
        10
    ],
    "GPE": [
        {
            "Russia": 4
        },
        4
    ]
}