{
    "ORG": [
        {
            "U.S. Department": 1,
            "Trump": 1,
            "Republican Party": 1,
            "EES Cross": 1
        },
        4
    ],
    "PERSON": [
        {
            "R. Crim": 1,
            "Paul Manafort": 3,
            "Oleg Deripaska": 1,
            "Deripaska": 1,
            "e.": 1,
            "g.": 1,
            "Manafort": 3,
            "Gerald Ford": 1,
            "Ronald Reagan": 1,
            "George H.W. Bush": 1,
            "Bob Dole": 1
        },
        15
    ],
    "NORP": [
        {
            "Russian": 3,
            "Ukrainian Russian": 1,
            "Republican": 1
        },
        5
    ],
    "GPE": [
        {
            "Ukraine": 3,
            "Russia": 5,
            "U.S.": 1,
            "Crimea": 3
        },
        12
    ],
    "DATE": [
        {
            "July 27, 2016": 1
        },
        1
    ],
    "CARDINAL": [
        {
            "16": 1
        },
        1
    ]
}