{
    "ORG": [
        {
            "U.S. Department": 1,
            "Party Regions": 1,
            "State Department": 1,
            "Kilimnik Trump Campaign": 1,
            "Opposition Bloc": 1,
            "Manafort": 6,
            "Grand Havana Club New York City": 1,
            "Kilimnik Purcell": 1,
            "Kilimnik Charap & Kimmage": 1,
            "EES Cross": 1
        },
        15
    ],
    "PERSON": [
        {
            "R. Crim": 1,
            "iii": 1,
            "Paul Manafort": 1,
            "Konstantin Kilimnik": 1,
            "Manafort": 3,
            "Kilimnik": 10,
            "Yuriy Boyko": 1,
            "Boyko high": 1,
            "officials.906 Kilimnik": 1,
            "Gates": 1,
            "Boyko": 1,
            "Bloc.911 Kilimnik": 1,
            "Patten": 1,
            "Kasanof Kilimnik": 1,
            "Manafort Gates": 1,
            "Gates Kilimnik": 1
        },
        27
    ],
    "CARDINAL": [
        {
            "6(e": 1,
            "Two": 1,
            "905": 1,
            "302": 3,
            "12": 1,
            "6": 1,
            "3": 1,
            "907": 1,
            "908": 1,
            "909": 1,
            "1": 2,
            "910": 1,
            "911": 1,
            "912": 1,
            "913": 1,
            "138": 1
        },
        19
    ],
    "GPE": [
        {
            "United States": 1,
            "New York City.905": 1,
            "Ukraine": 4,
            "Moscow": 1,
            "Washington": 3,
            "D.C.": 2,
            "Manafort": 2,
            "New York": 1,
            "Kiev": 1
        },
        16
    ],
    "DATE": [
        {
            "May August 2016": 1,
            "May 7, 2016": 1,
            "days": 1,
            "May 5, 2016": 1,
            "May 6": 1,
            "May 7.908": 1,
            "August 2, 2016": 1,
            "July 28, 2016": 1,
            "years ago": 1,
            "2": 1
        },
        10
    ],
    "NORP": [
        {
            "Russian": 1
        },
        1
    ],
    "LOC": [
        {
            "Kilimnik": 1
        },
        1
    ],
    "TIME": [
        {
            "Late evening": 1,
            "3:00 a.m.": 1,
            "5 hours": 1,
            "2:17:34 a.m.": 1,
            "10:51 a.m.": 1
        },
        5
    ],
    "WORK_OF_ART": [
        {
            "Black Caviar": 1
        },
        1
    ],
    "MONEY": [
        {
            "11/7/18": 1
        },
        1
    ],
    "PRODUCT": [
        {
            "302": 1
        },
        1
    ]
}