{
    "ORG": [
        {
            "U.S. Department": 1,
            "Comey": 6,
            "FBI": 4,
            "Donaldson": 4,
            "White House Counsel\u2019s Office": 3,
            "White House Counsel\u2019s": 2,
            "Comey Department Justice": 1,
            "F.B.I.": 1,
            "Comey Confirms": 1,
            "New York Times": 1,
            "Trump-Russia": 1,
            "Guardian": 1,
            "Dhillon 11/21/17 302,": 1,
            "White House": 1,
            "EES Cross": 1
        },
        29
    ],
    "PERSON": [
        {
            "R. Crim": 1,
            "briefing.321": 1,
            "Stephen Miller": 1,
            "investigation.322": 1,
            "Comey": 1,
            "Boente": 5,
            "investigation.326 Boente": 1,
            "McGahn": 3,
            "Matt Apuzzo et al.": 1,
            "Andy Greenberg": 1,
            "Wired": 1,
            "Julie Borger": 1,
            "Spencer Ackerman": 1,
            "S. Miller": 1,
            "Uttam Dhillon": 1
        },
        21
    ],
    "CARDINAL": [
        {
            "6(e": 1,
            "321": 1,
            "2": 1,
            "322": 1,
            "16-17": 1,
            "302": 4,
            "5": 6,
            "323": 1,
            "324": 1,
            "325": 1,
            "326": 1,
            "16-21": 1,
            "327": 1,
            "328": 1,
            "329": 1,
            "330": 1,
            "54": 1
        },
        25
    ],
    "DATE": [
        {
            "March 20": 1,
            "January 6, 2017": 1,
            "March 21, 2017": 3,
            "Mar. 20, 2017": 3,
            "July": 1,
            "302": 2,
            "4": 1,
            "day": 1,
            "302, 5": 1
        },
        14
    ],
    "GPE": [
        {
            "Russia": 3
        },
        3
    ],
    "PRODUCT": [
        {
            "Trump": 2,
            "Donaldson 3/21/17 Notes": 2
        },
        4
    ],
    "LAW": [
        {
            "Comey 1/6/17 Memorandum": 1
        },
        1
    ]
}