{
    "ORG": [
        {
            "U.S. Department": 1,
            "Trump Campaign": 1,
            "Trump Organization": 1,
            "Foundation Roscongress": 1,
            "St. Petersburg International Economic Forum": 1,
            "EES Cross": 1
        },
        6
    ],
    "PERSON": [
        {
            "R. Crim": 1,
            "Manafort": 3,
            "Oleg Deripaska": 1,
            "Rhona Graff": 1,
            "Sergei Prikhodko": 1,
            "Graff": 1
        },
        8
    ],
    "CARDINAL": [
        {
            "6(e": 1,
            "1": 1,
            "17": 1
        },
        3
    ],
    "GPE": [
        {
            "Ukraine": 4,
            "Russia": 4,
            "United States": 1,
            "Russian Federation": 1
        },
        10
    ],
    "NORP": [
        {
            "Ukrainian Russian": 1,
            "Russian": 2,
            "Russians": 1
        },
        4
    ],
    "DATE": [
        {
            "March 17, 2016": 1,
            "June 2016": 1,
            "November 10, 2016": 1
        },
        3
    ],
    "EVENT": [
        {
            "World Chess Championship": 1
        },
        1
    ]
}