{
    "ORG": [
        {
            "U.S. Department": 1,
            "Manafort": 1,
            "Office": 1,
            "Trump Tower Moscow": 1,
            "Congress Letter": 1,
            "Trump Moscow": 1,
            "New York Times": 1,
            "Cohen Information": 1,
            "Special Counsel": 2,
            "Personal Counsel": 2,
            "EES Cross": 1
        },
        13
    ],
    "PERSON": [
        {
            "R. Crim": 1,
            "Bill Crooked Hillary": 1,
            "Cohen": 9,
            "Paul Manafort": 1,
            "Michael Cohen": 2,
            "man!\u201d1046": 1,
            "Trump Tower Moscow": 1,
            "7/27/18": 1,
            "Matt Apuzzo et al.": 1,
            "ET": 1,
            "1048": 1,
            "III": 1,
            "Donald J. Trump": 1
        },
        22
    ],
    "CARDINAL": [
        {
            "6(e": 1,
            "1043": 1,
            "7/27/18": 1,
            "1044": 1,
            "1045": 1,
            "23": 1,
            "8/22/18": 1,
            "1047": 1,
            "1049": 1,
            "149": 1
        },
        10
    ],
    "DATE": [
        {
            "August 21, 2018": 1,
            "weeks": 1,
            "12 year old": 1,
            "September 17, 2018": 1,
            "November 20, 2018": 1,
            "July 20, 2018": 1,
            "Nov. 20, 2018": 1
        },
        7
    ],
    "LOC": [
        {
            "Southern District New York": 1
        },
        1
    ],
    "WORK_OF_ART": [
        {
            "Justice": 1
        },
        1
    ],
    "GPE": [
        {
            "Russia": 2,
            "direct[ed": 1
        },
        3
    ],
    "TIME": [
        {
            "7:26 a.m. ET": 1,
            "7:38 a.m. ET": 1,
            "7:56 a.m. ET": 1,
            "9:21 a.m.": 1
        },
        4
    ]
}