{
    "ORG": [
        {
            "U.S. Department": 1,
            "Kislyak": 2,
            "Transition Team": 2,
            "Bannon, Priebus": 1,
            "EES Cross": 1
        },
        7
    ],
    "PERSON": [
        {
            "R. Crim": 1,
            "McFarland": 13,
            "Flynn": 10,
            "Kislyak.1248 Flynn": 1,
            "Trump Putin": 1,
            "Middle East.1249": 1,
            "Bannon Reince Priebus": 1,
            "F]lynn": 1,
            "Trump": 4,
            "Sean Spicer": 1,
            "Russians.1254 McFarland": 1,
            "Russians.1256 McFarland": 1,
            "Trump Flynn": 1,
            "Flynn McFarland": 2,
            "Administration.1260 McFarland": 1,
            "Flynn 11/17/17 302": 2,
            "McFarland Flynn et al.": 1,
            "Westerhout Flaherty": 1
        },
        44
    ],
    "CARDINAL": [
        {
            "6(e": 1,
            "1249": 1,
            "3": 1,
            "1250": 1,
            "1251": 1,
            "1252": 1,
            "302": 6,
            "1259": 1,
            "8": 1,
            "171": 1
        },
        15
    ],
    "GPE": [
        {
            "Russia": 3
        },
        3
    ],
    "TIME": [
        {
            "4:43 p.m.": 1,
            "evening": 1,
            "Less hour later": 1
        },
        3
    ],
    "NORP": [
        {
            "russian": 1,
            "McFarland Russians": 1,
            "Russian": 3,
            "Russians": 1
        },
        6
    ],
    "DATE": [
        {
            "1248": 1,
            "7": 5,
            "1253": 1,
            "1254": 1,
            "1255": 1,
            "1256": 1,
            "1257": 1,
            "1258": 1,
            "4": 1,
            "1260": 1
        },
        14
    ]
}