{
    "ORG": [
        {
            "U.S. Department": 1,
            "Trump Campaign": 1,
            "Facebook": 1,
            "EES Cross": 1
        },
        4
    ],
    "PERSON": [
        {
            "R. Crim": 1,
            "Hillary": 1,
            "Clinton": 4,
            "Sanders Trump": 1,
            "State": 1
        },
        8
    ],
    "CARDINAL": [
        {
            "6(e": 1,
            "7 8": 1,
            "2016": 1,
            "47 48": 1,
            "131": 1,
            "70": 1,
            "50": 1,
            "23": 1
        },
        8
    ],
    "DATE": [
        {
            "February 2016": 1,
            "2016": 1
        },
        2
    ],
    "GPE": [
        {
            "U.S.": 1
        },
        1
    ],
    "WORK_OF_ART": [
        {
            "Secured Borders": 1
        },
        1
    ]
}