{
    "ORG": [
        {
            "U.S. Department": 1,
            "Special Counsel\u2019s": 1,
            "Investigative Technique Harm Ongoing Matter": 1,
            "FARA": 1,
            "Investigative Technique": 1,
            "Gates dismissed.3": 1,
            "Special Counsel": 1,
            "Office": 5,
            "Investigative TechniqueHarm": 1,
            "ITHOM": 1,
            "Manafort, Gates": 1,
            "Office District Columbia": 1,
            "Counsel": 1,
            "FBI": 1,
            "Manafort": 1,
            "EES Cross-Out elb Cross-Out": 1
        },
        20
    ],
    "PERSON": [
        {
            "R. Crim": 1,
            "Paul Manafort Richard Gates": 1,
            "Manafort Gates": 1,
            "Gates": 1,
            "Roger Stone": 1
        },
        5
    ],
    "CARDINAL": [
        {
            "6(e": 1,
            "2": 2,
            "10": 1,
            "11": 1,
            "3": 1
        },
        6
    ],
    "DATE": [
        {
            "October 27, 2017": 1,
            "February 22, 2018": 1,
            "February 23, 2018": 1
        },
        3
    ],
    "GPE": [
        {
            "District Columbia": 3,
            "Russia": 2,
            "Ukraine": 2,
            "United States": 1,
            "U.S.": 1,
            "Virginia": 1
        },
        10
    ],
    "LOC": [
        {
            "Eastern District": 2
        },
        2
    ]
}