{
    "ORG": [
        {
            "u anyt[h]ing": 1,
            "U.S. Department": 1,
            "Twitter": 2,
            "GRU": 5,
            "DCCC": 1,
            "WikiLeaks": 6,
            "DNC": 1,
            "WikiLeaks Twitter": 1,
            "Assange": 1,
            "GOP": 5,
            "FOIA": 1,
            "Twitter Group Chat, Group": 1,
            "EES Cross": 1
        },
        27
    ],
    "PERSON": [
        {
            "R. Crim": 1,
            "Guccifer 2.0": 3,
            "Guccifer": 1,
            "Clinton Campaign WikiLeaks": 1,
            "DCLeaks Guccifer": 1,
            "Julian Assange": 1,
            "Clinton": 2,
            "Hillary": 2,
            "Assange": 1,
            "hillary": 1,
            "Hillary Clinton": 1
        },
        15
    ],
    "CARDINAL": [
        {
            "6(e": 1,
            "154": 2,
            "3": 1,
            "30,000": 1,
            "156": 1,
            "594242937858486276": 1,
            "157": 1,
            "44": 1
        },
        9
    ],
    "DATE": [
        {
            "early August 2016": 1,
            "August 17, 2016": 1,
            "September 9, 2016": 1,
            "2016": 1,
            "November 2015": 1,
            "March 2016": 1
        },
        6
    ],
    "NORP": [
        {
            "democrats": 1
        },
        1
    ],
    "PRODUCT": [
        {
            "HOM HOM 155": 1
        },
        1
    ],
    "GPE": [
        {
            "U.S.": 1
        },
        1
    ]
}