{
    "ORG": [
        {
            "U.S. Department": 1,
            "fraud,101": 1,
            "Twitter": 2,
            "@TEN_GOP": 1,
            "Trump Campaign": 1,
            "Trump Administration": 1,
            "Facebook": 2,
            "U.S. Tea Party": 1,
            "DNC Operatives corruption &": 1,
            "WeinerGate": 2,
            "RT": 1,
            "Media": 1,
            "FridayFeeling": 1,
            "Obama, Hillary & democrats": 1,
            "ID PP 34": 1,
            "EES Cross-Out": 1
        },
        19
    ],
    "PERSON": [
        {
            "R. Crim": 1,
            "Clinton": 1,
            "Donald J. Trump": 1,
            "Trump": 3,
            "President!\u201d104": 1,
            "Matt Skiber": 3,
            "This great!\u201d105": 1,
            "screenshot": 1,
            "Screenshot Trump Facebook Account": 1,
            "Hillary": 1
        },
        14
    ],
    "CARDINAL": [
        {
            "6(e": 1,
            "97": 1,
            "#": 1,
            "98": 1,
            "99": 1,
            "Thousands": 1,
            "100": 1,
            "101": 1,
            "2,214": 1,
            "110": 1,
            "102": 1,
            "103": 1,
            "104": 1,
            "105": 1,
            "100009922908461": 1
        },
        15
    ],
    "DATE": [
        {
            "September 19, 2017": 1,
            "August 23, 2016": 1,
            "August 20, 2016": 1,
            "yesterday": 1
        },
        4
    ],
    "GPE": [
        {
            "Miami": 2,
            "North Carolina": 1,
            "Detroit": 1,
            "AMERICA": 1
        },
        5
    ],
    "WORK_OF_ART": [
        {
            "RT @TEN_GOP:": 2,
            "@realDonaldTrump & @mike_pence POTUS & VPOTUS": 1,
            "Hillary": 1,
            "RT @Pamela_Moore13:": 1
        },
        5
    ],
    "MONEY": [
        {
            "#hillarysemail #": 1,
            "#hillaryemail": 1
        },
        2
    ],
    "PRODUCT": [
        {
            "@TEN_GOP 10/11/16 Tweet": 1,
            "@TEN_GOP 11/6/16 Tweet": 1
        },
        2
    ],
    "TIME": [
        {
            "7:33 p.m.": 1
        },
        1
    ]
}