{
    "ORG": [
        {
            "U.S. Department": 1,
            "Section II.A.4": 1,
            "supra": 1,
            "Administration": 1,
            "Comey": 19,
            "FBI": 6,
            "Senate Select Intelligence Committee": 2,
            "115th Cong": 4,
            "White House": 2,
            "Section II.D": 1,
            "infra": 1,
            "Universe Pageant": 1,
            "Trump": 1,
            "Crocus Group": 1,
            "EES Cross": 1
        },
        43
    ],
    "PERSON": [
        {
            "R. Crim": 1,
            "Trump": 3,
            "Comey": 6,
            "reputation.109": 1,
            "role.111 Comey": 1,
            "Steele reporting.112 Comey": 1,
            "James B. Comey": 4,
            "Steele": 2,
            "FBI": 2,
            "CQ Cong": 2,
            "Michael Cohen": 1,
            "Giorgi Rtskhiladze": 1,
            "Rtskhiladze Cohen": 1,
            "Rtskhiladze": 1
        },
        27
    ],
    "CARDINAL": [
        {
            "6(e": 1,
            "2": 1,
            "107": 1,
            "1": 6,
            "108": 1,
            "302": 7,
            "3": 4,
            "109": 1,
            "110": 1,
            "90": 1,
            "111": 1,
            "112": 1,
            "27": 1
        },
        27
    ],
    "NORP": [
        {
            "Russian": 3,
            "D]uring": 1,
            "Russians": 1
        },
        5
    ],
    "DATE": [
        {
            "January 6, 2017": 1,
            "2016": 2,
            "prior year": 1,
            "June 8, 2017": 4,
            "4": 3,
            "January 2017": 1,
            "January 11": 1,
            "January 22": 1,
            "22": 1,
            "January 27": 1,
            "2013": 1,
            "October 30, 2016": 1
        },
        18
    ],
    "GPE": [
        {
            "Russia": 2,
            "Moscow": 1
        },
        3
    ],
    "PRODUCT": [
        {
            "Comey": 1,
            "1/7/17 Memorandum": 2
        },
        3
    ],
    "WORK_OF_ART": [
        {
            "Russian Election Interference Before Senate Select Intelligence Committee": 2,
            "Text Message": 1
        },
        3
    ],
    "TIME": [
        {
            "evening": 1,
            "morning": 1
        },
        2
    ]
}