{
    "ORG": [
        {
            "U.S. Department": 1,
            "WikiLeaks": 7,
            "Jr.,": 1,
            "fer 2.0": 1,
            "EES Cross": 1
        },
        11
    ],
    "PERSON": [
        {
            "R. Crim": 1,
            "b. c. d. e.": 1,
            "Guccifer 2.0": 1,
            "Clinton": 1,
            "Roger Stone": 1,
            "Donald Trump": 1,
            "Paul Manafort": 1,
            "Rick Gates": 1,
            "Julian Assange": 1,
            "lfyes": 1,
            "Hillary Clinton": 1,
            "John Podesta": 2
        },
        13
    ],
    "CARDINAL": [
        {
            "6(e": 1,
            "nearly 20,000": 1,
            "1": 2,
            "2": 1,
            "30,000": 1,
            "11": 2,
            "111": 1
        },
        9
    ],
    "DATE": [
        {
            "July 22, 2016": 2,
            "Prior July 22, 2016": 1,
            "July 27, 2016": 1,
            "October 7, 2016": 2
        },
        6
    ],
    "NORP": [
        {
            "Democratic": 1,
            "Russians": 1
        },
        2
    ],
    "GPE": [
        {
            "Russia": 3
        },
        3
    ]
}