{
    "ORG": [
        {
            "U.S. Department": 1,
            "Congress": 3,
            "Trump Tower Moscow": 4,
            "Trump": 3,
            "Office": 1,
            "Washington Post": 3,
            "Trump Organization": 1,
            "Kremlin": 1,
            "Special Counsel": 1,
            "EES Cross": 1
        },
        19
    ],
    "PERSON": [
        {
            "R. Crim": 1,
            "Cohen": 14,
            "do.993": 1,
            "concerns.994": 1,
            "Trump": 1,
            "Cohen 11/20/18": 4,
            "Michael Cohen": 1,
            "Carol D. Leonnig et al.": 2
        },
        25
    ],
    "CARDINAL": [
        {
            "6(e": 1,
            "three": 1,
            "four": 1,
            "six": 1,
            "eleven": 1,
            "eighteen": 1,
            "989": 1,
            "302": 4,
            "14": 1,
            "990": 1,
            "5": 3,
            "991": 1,
            "992": 1,
            "993": 1,
            "994": 1,
            "995": 1,
            "996": 1,
            "997": 1,
            "7": 1,
            "143": 1
        },
        25
    ],
    "GPE": [
        {
            "Russia": 1,
            "Moscow": 1
        },
        2
    ],
    "DATE": [
        {
            "August 27, 2017": 2,
            "2015": 1,
            "January 2016": 1,
            "January 2016.997 seconds": 1,
            "5": 2,
            "7": 1,
            "Aug. 27, 2017": 2
        },
        10
    ],
    "TIME": [
        {
            "6 minutes 16 seconds": 2,
            "1 minutes 10 seconds": 2,
            "3 minutes 5 seconds": 2,
            "18 minutes 55 seconds": 2,
            "4 minutes 56 seconds": 2,
            "11 minutes 6 seconds": 2,
            "8 seconds": 2,
            "3 seconds": 2,
            "2 seconds": 4,
            "28 seconds": 1,
            "4 minutes 37 seconds": 1,
            "1 minute 16 seconds": 1,
            "1 minutes 35 seconds": 1
        },
        24
    ],
    "MONEY": [
        {
            "302": 2
        },
        2
    ]
}