{
    "ORG": [
        {
            "U.S. Department": 1,
            "DOJ": 1,
            "White House": 4,
            "White House Counsel\u2019s Office": 1,
            "interview,146": 1,
            "FBI": 4,
            "sanctions.147": 1,
            "National Security Council": 1,
            "Kislyak": 1,
            "U.S.C.": 1,
            "Office Counsel": 5,
            "McCord": 3,
            "Burnham": 3,
            "White House Counsel\u2019s": 1,
            "POTUS": 1,
            "EES Cross": 1
        },
        30
    ],
    "PERSON": [
        {
            "R. Crim": 1,
            "Flynn": 8,
            "Sally Yates": 1,
            "Donald McGahn": 1,
            "Yates Mary McCord": 1,
            "James Burnham.143": 1,
            "Yates": 7,
            "Flynn Kislyak": 1,
            "Pence Spicer": 1,
            "Flynn lies,148": 1,
            "John Eisenberg": 1,
            "McGahn": 1,
            "Logan Act.153": 1,
            "Flynn Tick Tock\u201d": 1
        },
        27
    ],
    "CARDINAL": [
        {
            "6(e": 1,
            "4": 4,
            "18": 1,
            "142": 1,
            "302": 18,
            "6": 3,
            "143": 1,
            "SCR015_000198": 3,
            "144": 1,
            "145": 1,
            "5": 2,
            "7": 3,
            "146": 1,
            "147 SCR015_000198": 1,
            "2/15/17": 1,
            "148": 1,
            "149 SCR015_000198": 1,
            "150": 1,
            "151": 1,
            "152": 1,
            "153": 1,
            "31": 1
        },
        49
    ],
    "DATE": [
        {
            "January 26, 2017": 1,
            "Later day": 1,
            "6": 4,
            "7": 3,
            "8": 1,
            "January 26": 1
        },
        11
    ],
    "NORP": [
        {
            "Russians": 1
        },
        1
    ],
    "TIME": [
        {
            "That afternoon": 1
        },
        1
    ],
    "LAW": [
        {
            "Section 1001": 1
        },
        1
    ],
    "FAC": [
        {
            "302": 1
        },
        1
    ]
}