{
    "ORG": [
        {
            "U.S. Department": 1,
            "Al-Adahi": 1,
            "Obama": 1,
            "EES Cross": 1
        },
        4
    ],
    "PERSON": [
        {
            "R. Crim": 1
        },
        1
    ],
    "CARDINAL": [
        {
            "6(e": 1,
            "1.06": 1,
            "3.01": 1,
            "422": 1,
            "232": 1,
            "513": 1,
            "158": 1,
            "613": 1,
            "14": 1
        },
        9
    ],
    "GPE": [
        {
            "U.S.": 2,
            "United States": 1
        },
        3
    ],
    "DATE": [
        {
            "1975": 1,
            "1995": 1,
            "2010": 1
        },
        3
    ],
    "WORK_OF_ART": [
        {
            "A consistent": 1
        },
        1
    ]
}