{
    "ORG": [
        {
            "U.S. Department": 1,
            "Department Justice": 1,
            "Donaldson": 5,
            "it?\u201d591": 1,
            "EES Cross": 1
        },
        9
    ],
    "PERSON": [
        {
            "R. Crim": 1,
            "Robert Bork": 1,
            "McGahn": 7,
            "Rod Mueller": 1,
            "Mueller": 1,
            "called.586": 1,
            "resign.587": 1,
            "Annie Donaldson": 1,
            "decision.588": 1,
            "Donaldson": 2,
            "Don McGahn": 1
        },
        18
    ],
    "WORK_OF_ART": [
        {
            "Saturday Night Massacre Bork": 1,
            "Call Rod": 1
        },
        2
    ],
    "CARDINAL": [
        {
            "579": 1,
            "302": 16,
            "2": 8,
            "580": 1,
            "581": 1,
            "5": 2,
            "582": 1,
            "3": 3,
            "583": 1,
            "1-2": 1,
            "584": 1,
            "585": 1,
            "586": 1,
            "587": 1,
            "588": 1,
            "2-3": 1,
            "589": 1,
            "4": 3,
            "590": 1,
            "591": 1,
            "86": 1
        },
        48
    ],
    "DATE": [
        {
            "5": 1,
            "4": 1
        },
        2
    ],
    "TIME": [
        {
            "302": 2
        },
        2
    ]
}