{
    "ORG": [
        {
            "U.S. Department": 1,
            "GRU": 5,
            "DCCC": 7,
            "DCCC network": 1,
            "DNC": 10,
            "systems).124 X- Tunnel": 1,
            "DCCC DNC": 1,
            "transfers.125": 1,
            "Investigative Technique Investigative Technique 123": 1,
            "Investigative Technique Investigative Technique": 1,
            "EES Cross": 1
        },
        30
    ],
    "PERSON": [
        {
            "R. Crim": 1,
            "server.122 b. Implantation": 1,
            "Mimikatz": 1
        },
        3
    ],
    "CARDINAL": [
        {
            "6(e": 1,
            "2": 1,
            "approximately 29": 1,
            "26165": 3,
            "30": 1,
            "119": 1,
            "121": 1,
            "5": 2,
            "122": 1,
            "124 125": 1,
            "38": 1
        },
        14
    ],
    "DATE": [
        {
            "later April 12, 2016": 1,
            "week": 1,
            "weeks": 1,
            "Approximately days": 1,
            "April 18, 2016": 1,
            "Between April 18, 2016 June 8, 2016": 1
        },
        6
    ],
    "PRODUCT": [
        {
            "VPN": 2,
            "malware,123": 1
        },
        3
    ],
    "WORK_OF_ART": [
        {
            "X-Tunnel": 1
        },
        1
    ]
}