{
    "ORG": [
        {
            "U.S. Department": 1,
            "Rosenstein Department Justice": 1,
            "White House Counsel": 1,
            "Washington Post": 3,
            "justice.561": 1,
            "Special Counsel\u2019s": 1,
            "report.562": 1,
            "Post": 1,
            "Comey": 2,
            "Trump": 1,
            "FBI": 1,
            "Trump possible obstruction justice": 2,
            "CNN": 2,
            "chyron": 1,
            "Supreme Court": 1,
            "EES Cross": 1
        },
        21
    ],
    "PERSON": [
        {
            "R. Crim": 1,
            "Coats Rogers": 1,
            "James B. Comey": 1,
            "investigation.565": 1,
            "Devlin Barrett et al.": 2,
            "MUELLER": 1,
            "McGahn": 1,
            "Don McGahn": 1,
            "Neil Gorsuch": 1,
            "ET": 1
        },
        11
    ],
    "CARDINAL": [
        {
            "6(e": 1,
            "zero": 1,
            "560": 1,
            "561": 1,
            "562": 1,
            "563": 1,
            "564": 1,
            "565": 1,
            "302": 2,
            "2": 1,
            "566": 1,
            "567": 1,
            "84": 1
        },
        14
    ],
    "DATE": [
        {
            "March 20, 2017": 1,
            "January": 1,
            "early day": 1,
            "June 15, 2017": 1,
            "June 14, 2017": 3,
            "following day": 1
        },
        8
    ],
    "TIME": [
        {
            "approximately 10:31 p.m.": 1,
            "6:55 p.m.": 1,
            "7:15 p.m. ET": 1,
            "10:31 p.m. end time 10:46 p.m.": 1,
            "6:55 a.m. ET": 1,
            "7:57 a.m.": 1
        },
        6
    ],
    "NORP": [
        {
            "Russians": 1,
            "Nice\u201d;566": 1,
            "American": 1
        },
        3
    ],
    "WORK_OF_ART": [
        {
            "WASH POST:": 1,
            "Daily Diary": 1
        },
        2
    ]
}