{
    "ORG": [
        {
            "U.S. Department": 1,
            "Manafort": 10,
            "Trump": 2,
            "time.877": 1,
            "Gates": 4,
            "Administration": 1,
            "Campaign, Manafort": 1,
            "Opposition Bloc officials.880": 1,
            "Trump Campaign": 1,
            "Office Manafort": 1,
            "New York Times": 1,
            "Atlantic Council": 2,
            "Kyiv Post": 2,
            "Kremlin": 1,
            "Opposition Bloc": 1,
            "Party Regions": 1,
            "EES Cross": 1
        },
        32
    ],
    "PERSON": [
        {
            "R. Crim": 1,
            "Gates": 3,
            "Trump": 2,
            "Paul Manafort": 1,
            "Deripaska": 4,
            "Serhiy Lyovochkin": 1,
            "Boris": 1,
            "Kilimnik": 3,
            "role.882 Kilimnik": 1,
            "Ovd": 1,
            "Oleg Vladimirovich Deripaska": 1,
            "Victor [Boyarkin": 1,
            "Pericles": 1,
            "Sharon LaFraniere": 1,
            "Tierney Sneed": 1,
            "Mykola Vorobiov": 1,
            "Sergii Leshchenko": 1,
            "Interfax-Ukraine": 1,
            "Kolesnikov": 1,
            "Igor Kossov": 1,
            "Markian Kuzmowycz": 1,
            "Gates Kilimnik": 1
        },
        30
    ],
    "CARDINAL": [
        {
            "6(e": 1,
            "877": 1,
            "302": 4,
            "10": 2,
            "878": 1,
            "4": 1,
            "879": 1,
            "881": 1,
            "882": 1,
            "883": 1,
            "884": 1,
            "135": 1
        },
        16
    ],
    "DATE": [
        {
            "March 2016": 1,
            "March 30, 2016": 1,
            "April 11, 2016": 1,
            "11": 1,
            "July 30, 2018": 2,
            "Sept. 23, 2018": 1,
            "Aug. 14, 2014": 1,
            "June 23, 2018": 1,
            "Mar. 7, 2019": 1,
            "Nov. 19, 2018": 1
        },
        11
    ],
    "GPE": [
        {
            "Florida": 1,
            "Akhmetov": 1,
            "Russia": 1,
            "Ukraine": 4
        },
        7
    ],
    "NORP": [
        {
            "Ukrainian": 1,
            "Pro-Russian": 1
        },
        2
    ],
    "LOC": [
        {
            "Kilimnik": 1
        },
        1
    ],
    "FAC": [
        {
            "OVD.\u201d883 Gates": 1,
            "Kyiv Hotel Industry Makes Room New Entrants": 1
        },
        2
    ],
    "MONEY": [
        {
            "approximately $2 million": 1,
            "$60 Million": 1
        },
        2
    ],
    "PRODUCT": [
        {
            "Talking Points Memo": 1
        },
        1
    ]
}