{
    "ORG": [
        {
            "U.S. Department": 1,
            "Trump Tower Moscow": 2,
            "Trump": 1,
            "WikiLeaks releases.499": 1,
            "White House": 3,
            "Comey": 6,
            "DOJ": 2,
            "Comey White House": 1,
            "Department Justice": 1,
            "Special Counsel": 1,
            "Section II.K.1": 1,
            "FBI": 3,
            "Office": 1,
            "Office Southern District New York": 1,
            "EES Cross": 1
        },
        26
    ],
    "PERSON": [
        {
            "R. Crim": 1,
            "Trump": 1,
            "efforts.498": 1,
            "Trump thatawarewas": 1,
            "election.500": 1,
            "Sessions": 1,
            "Michael Cohen": 1,
            "Cohen Southern District": 1
        },
        8
    ],
    "CARDINAL": [
        {
            "6(e": 1,
            "498": 1,
            "499": 1,
            "500": 1,
            "77": 1
        },
        5
    ],
    "DATE": [
        {
            "June 2016": 1,
            "May 17, 2017": 1,
            "June 14, 2017": 1
        },
        3
    ],
    "NORP": [
        {
            "Russian": 1
        },
        1
    ],
    "GPE": [
        {
            "Russia": 3,
            "U.S.": 1,
            "New York": 1
        },
        5
    ],
    "LANGUAGE": [
        {
            "Russian": 1
        },
        1
    ]
}