{
    "ORG": [
        {
            "U.S. Department": 1,
            "Alfa-Bank": 1,
            "Administration": 1,
            "communication.986": 1,
            "Trump Transition Team": 1,
            "Transition-Era Outreach Incoming Administration": 1,
            "Trump Administration": 1,
            "Trump": 1,
            "Trump Campaign": 1,
            "UAE": 1,
            "Bannon": 1,
            "Russian Direct Investment Fund": 3,
            "EES Cross": 1
        },
        15
    ],
    "PERSON": [
        {
            "R. Crim": 1,
            "Putin": 9,
            "Aven": 4,
            "success.987": 1,
            "Kirill Dmitriev\u2019s": 1,
            "Kirill Dmitriev": 2,
            "Dmitriev": 5,
            "George Nader": 1,
            "Nader": 3,
            "Seychelles Dmitriev Erik Prince": 1,
            "Steve Bannon.989": 1,
            "Jared Kushner": 1,
            "Rick Gerson": 1,
            "Dmitriev Gerson": 3,
            "Gerson": 2,
            "Kushner": 2,
            "Rex Tillerson": 1,
            "funds.992 Dmitriev": 1,
            "Crown Prince Mohammed bin Zayed": 1,
            "Bannon": 1,
            "https://rdif.ru/Eng_person_dmitriev_kirill/.": 1
        },
        43
    ],
    "CARDINAL": [
        {
            "6(e": 1,
            "2": 1,
            "987": 1,
            "302": 2,
            "6": 1,
            "989": 1,
            "990": 1,
            "1": 1,
            "992": 1,
            "147": 1
        },
        11
    ],
    "EVENT": [
        {
            "Aven Grand Jury": 1
        },
        1
    ],
    "NORP": [
        {
            "Russian": 2
        },
        2
    ],
    "GPE": [
        {
            "Russia": 3,
            "United Arab Emirates": 1,
            "United States": 1,
            "Dmitriev": 1,
            "UAE": 2
        },
        8
    ],
    "DATE": [
        {
            "months": 1,
            "late November 2016": 1,
            "December 2016 January 2017": 1,
            "302": 1
        },
        4
    ],
    "WORK_OF_ART": [
        {
            "Text Message": 1
        },
        1
    ]
}