{
    "ORG": [
        {
            "U.S. Department": 1,
            "Office": 1,
            "EES Cross": 1
        },
        3
    ],
    "PERSON": [
        {
            "R. Crim": 1,
            "Nader Dmitriev": 1,
            "Dmitriev": 3,
            "Nader": 6,
            "Prince": 5,
            "Nader Prince": 1,
            "Bannon Seychelles.1082": 1,
            "Prince Bannon": 1,
            "iii": 1,
            "Erik Prince\u2019s": 1,
            "Steve Bannon Seychelles Trip": 1,
            "Bannon": 3,
            "Bannon Bannon": 1,
            "Dmitriev.1086 Prince": 1,
            "Bannon Dmitriev": 1,
            "screenshot Dmitriev\u2019s": 1,
            "Erik Prince": 1
        },
        30
    ],
    "CARDINAL": [
        {
            "6(e": 1,
            "1077": 2,
            "15": 3,
            "302": 6,
            "10": 1,
            "4": 1,
            "1084": 1,
            "1085": 1,
            "1086": 1,
            "5": 2,
            "1087": 1,
            "155": 1
        },
        21
    ],
    "NORP": [
        {
            "Russians": 1,
            "Russian": 2
        },
        3
    ],
    "TIME": [
        {
            "Hours": 1
        },
        1
    ],
    "GPE": [
        {
            "Prince Dmitriev": 1,
            "Seychelles": 2,
            "United States": 2
        },
        5
    ],
    "DATE": [
        {
            "January 12, 2017": 1,
            "Several days later": 1,
            "mid-January": 1,
            "January 16, 2017": 1,
            "302": 4,
            "9": 1,
            "15": 1,
            "1082": 1,
            "11": 2
        },
        13
    ],
    "WORK_OF_ART": [
        {
            "Text Message": 1
        },
        1
    ]
}