{
    "ORG": [
        {
            "U.S. Department": 1,
            "Trump": 2,
            "WikiLeaks": 2,
            "Democratic Party": 1,
            "Trump Organization": 1,
            "FBI": 5,
            "National Security": 1,
            "White House": 2,
            "Comey": 3,
            "Oval Office": 1,
            "Kislyak": 1,
            "White House Counsel\u2019s": 1,
            "Trump Campaign": 1,
            "Sessions": 2,
            "EES Cross": 1
        },
        25
    ],
    "PERSON": [
        {
            "R. Crim": 1,
            "Trump": 2,
            "Comey Michael Flynn": 1,
            "Michael Flynn": 1,
            "Sergey Kislyak": 1,
            "Flynn": 7,
            "Comey": 2,
            "K.T. McFarland": 1,
            "McFarland": 1,
            "Jeff Sessions": 1,
            "Donald McGahn": 1,
            "Sessions": 1
        },
        20
    ],
    "CARDINAL": [
        {
            "6(e": 1,
            "3": 1
        },
        2
    ],
    "NORP": [
        {
            "Russian": 4
        },
        4
    ],
    "DATE": [
        {
            "2016": 1,
            "late June 2016": 1,
            "mid-January 2017": 1,
            "January 27, day": 1,
            "February 14, day": 1,
            "February 2017": 1,
            "early March": 1,
            "March 2": 1,
            "That weekend": 1,
            "Later March": 1
        },
        10
    ],
    "GPE": [
        {
            "Russia": 9,
            "U.S.": 1
        },
        10
    ],
    "FAC": [
        {
            "Trump Tower Moscow": 1
        },
        1
    ],
    "TIME": [
        {
            "Later afternoon": 1
        },
        1
    ],
    "WORK_OF_ART": [
        {
            "unrecuse": 1
        },
        1
    ]
}