{
    "ORG": [
        {
            "U.S. Department": 1,
            "Oval Office": 1,
            "Priebus": 2,
            "away.234": 1,
            "115th Cong": 6,
            "FBI": 6,
            "Comey": 7,
            "EES Cross": 1
        },
        25
    ],
    "PERSON": [
        {
            "R. Crim": 1,
            "Comey": 5,
            "Mike Flynn": 1,
            "Flynn": 5,
            "James B. Comey": 6,
            "Comey Sessions": 1,
            "Kushner": 2
        },
        21
    ],
    "CARDINAL": [
        {
            "6(e": 1,
            "one": 2,
            "302": 8,
            "10": 4,
            "1": 3,
            "234": 1,
            "2": 4,
            "18": 1,
            "235": 1,
            "236": 1,
            "5": 3,
            "237": 1,
            "238": 1,
            "10-11": 1,
            "239": 1,
            "240": 1,
            "40": 1
        },
        35
    ],
    "NORP": [
        {
            "Russians": 1
        },
        1
    ],
    "PRODUCT": [
        {
            "Comey": 2,
            "Comey 2/14/17 Memorandum": 6
        },
        8
    ],
    "WORK_OF_ART": [
        {
            "Russian Election Interference Before Senate Select Intelligence Committee": 5
        },
        5
    ],
    "DATE": [
        {
            "June 8, 2017": 6,
            "4": 2,
            "6": 1,
            "24": 1,
            "31": 1
        },
        11
    ],
    "TIME": [
        {
            "302": 1
        },
        1
    ],
    "LAW": [
        {
            "Comey 2/14/17 Memorandum": 1
        },
        1
    ],
    "GPE": [
        {
            "United States": 1
        },
        1
    ]
}