{
    "ORG": [
        {
            "U.S. Department": 1,
            "Trump Organization": 1,
            "Letter Intent.1050": 1,
            "Congress": 3,
            "Trump Tower Moscow": 1,
            "Office": 1,
            "House": 1,
            "Senate": 1,
            "Cohen Information": 1,
            "C-SPAN": 4,
            "EES Cross": 1
        },
        16
    ],
    "PERSON": [
        {
            "R. Crim": 1,
            "Cohen Felix Sater": 1,
            "Cohen": 12,
            "Trump Tower": 1,
            "Michael Cohen": 2,
            "Donald J. Trump": 1,
            "Trump Departure": 4,
            "Trump": 1,
            "Michael D. Cohen": 1,
            "Esq": 1
        },
        25
    ],
    "CARDINAL": [
        {
            "6(e": 1,
            "1052": 1,
            "1053": 1,
            "1054": 1,
            "1056": 1,
            "150": 1
        },
        6
    ],
    "NORP": [
        {
            "Russian": 1
        },
        1
    ],
    "DATE": [
        {
            "November 29, 2018": 1,
            "Later November 29": 1,
            "1050": 1,
            "Nov. 20, 2018": 1,
            "15": 1,
            "1051": 1,
            "Nov. 29, 2018": 5,
            "August 28, 2017": 1,
            "late January 2016": 1,
            "Aug. 28, 2017": 1
        },
        14
    ],
    "GPE": [
        {
            "Moscow": 2,
            "United States": 1
        },
        3
    ]
}