{
    "ORG": [
        {
            "U.S. Department": 1,
            "Trump Campaign": 1,
            "Twitter": 4,
            "IRA.79": 1,
            "Twitter Tell": 1,
            "Washington Post": 1,
            "EES Cross": 1
        },
        10
    ],
    "PERSON": [
        {
            "R. Crim": 1,
            "Michael McFaul,72": 1,
            "Roger Stone,73 Sean": 1,
            "Michael Flynn Jr": 1,
            "Eli Rosenberg": 1
        },
        5
    ],
    "CARDINAL": [
        {
            "6(e": 1,
            "3,814": 1,
            "approximately 175,993": 1,
            "73": 1,
            "74": 1,
            "75": 1,
            "76": 1,
            "78": 1,
            "677,000": 1,
            "28": 1
        },
        10
    ],
    "GPE": [
        {
            "U.S.": 2
        },
        2
    ],
    "DATE": [
        {
            "January 2018": 1,
            "weeks 2016": 1,
            "Jan. 19, 2019": 1
        },
        3
    ],
    "PERCENT": [
        {
            "approximately 8.4%": 1
        },
        1
    ],
    "WORK_OF_ART": [
        {
            "RT @Jenn_Abrams": 1,
            "retweet": 1
        },
        2
    ],
    "NORP": [
        {
            "Russians": 1
        },
        1
    ]
}