{
    "ORG": [
        {
            "U.S. Department": 1,
            "EES Cross": 1
        },
        2
    ],
    "PERSON": [
        {
            "R. Crim": 1
        },
        1
    ],
    "CARDINAL": [
        {
            "6(e": 1,
            "30": 1
        },
        2
    ]
}